

[ 2020-02-05 11:43:28 ] User: 17 Route: 5 Page :1

[ 2020-02-05 11:43:28 ] User: 17 Route: 5 Page :1

[ 2020-02-05 11:43:29 ] User: 17 Route: 5 Page :1

[ 2020-02-05 11:43:29 ] User: 17 Route: 5 Page :1

[ 2020-02-05 11:43:30 ] User: 17 Route: 5 Page :1

[ 2020-02-05 11:43:31 ] User: 17 Route: 5 Page :1

[ 2020-02-05 11:43:31 ] User: 17 Route: 5 Page :1

[ 2020-02-05 11:43:32 ] User: 17 Route: 5 Page :1

[ 2020-02-05 11:43:32 ] User: 17 Route: 5 Page :1

[ 2020-02-05 11:43:33 ] User: 17 Route: 5 Page :1

[ 2020-02-05 11:43:34 ] User: 17 Route: 5 Page :1

[ 2020-02-05 11:43:34 ] User: 17 Route: 5 Page :1

[ 2020-02-05 11:43:35 ] User: 17 Route: 5 Page :1

[ 2020-02-05 11:46:00 ] User: 17 Route: 5 Page :1