27-08-2018 09:32:32 AM {"user_name":"root","password":"zkp658rv","phone_no":"01726649430","msg":"This is new message"}
28-08-2018 04:17:25 AM {"user_name":"root","password":"zkp658rv","phone_no":"[TO]","msg":"[MESSAGE]"}
28-08-2018 04:17:58 AM {"user_name":"root","password":"zkp658rv","phone_no":"01740963472","msg":"This is message"}
11-09-2018 05:11:48 AM []
11-09-2018 05:13:04 AM []
11-09-2018 11:09:20 AM {"user_name":"root","password":"zkp658rv","phone_no":"[TO]","msg":"[MESSAGE]"}
11-09-2018 11:10:17 AM {"user_name":"root","password":"zkp658rv","phone_no":"[TO]","msg":"[MESSAGE]"}
11-09-2018 11:12:29 AM {"user_name":"root","password":"zkp658rv","phone_no":"[TO]","msg":"[MESSAGE]"}
11-09-2018 11:12:37 AM {"user_name":"root","password":"zkp658rv","phone_no":"[TO]","msg":"[MESSAGE]"}
11-09-2018 11:15:34 AM {"user_name":"root","password":"zkp658rv","phone_no":"[TO]","msg":"[MESSAGE]"}
11-09-2018 11:15:36 AM {"user_name":"root","password":"zkp658rv","phone_no":"[TO]","msg":"[MESSAGE]"}
11-09-2018 11:15:41 AM {"user_name":"root","password":"zkp658rv","phone_no":"[TO]","msg":"[MESSAGE]"}
11-09-2018 11:15:56 AM {"user_name":"root","password":"zkp658rv","phone_no":"[TO]","msg":"[MESSAGE]"}
11-09-2018 11:16:13 AM {"user_name":"root","password":"zkp658rv","phone_no":"[TO]","msg":"[MESSAGE]"}
11-09-2018 11:16:26 AM {"user_name":"root","password":"zkp658rv","phone_no":"[TO]","msg":"[MESSAGE]"}
11-09-2018 11:18:13 AM {"user_name":"root","password":"zkp658rv","phone_no":"[TO]","msg":"[MESSAGE]"}
11-09-2018 11:18:22 AM {"user_name":"root","password":"zkp658rv","phone_no":"[TO]","msg":"[MESSAGE]"}
11-09-2018 11:18:50 AM {"user_name":"root","password":"zkp658rv","phone_no":"[TO]","msg":"[MESSAGE]"}
11-09-2018 11:19:41 AM {"user_name":"root","password":"zkp658rv","phone_no":"[TO]","msg":"[MESSAGE]"}
11-09-2018 11:22:49 AM {"user_name":"root","password":"zkp658rv","phone_no":"[TO]","msg":"[MESSAGE]"}
11-09-2018 11:22:57 AM {"user_name":"root","password":"zkp658rv","phone_no":"[TO]","msg":"[MESSAGE]"}
11-09-2018 11:23:46 AM {"user_name":"root","password":"zkp658rv","phone_no":"[TO]","msg":"[MESSAGE]"}
11-09-2018 11:24:12 AM {"user_name":"root","password":"zkp658rv","phone_no":"8801740963472","msg":"[MESSAGE]"}
11-09-2018 11:24:26 AM {"user_name":"root","password":"zkp658rv","phone_no":"8801740963472","msg":"[MESSAGE]"}
11-09-2018 11:25:30 AM {"user_name":"root","password":"zkp658rv","phone_no":"8801740963472","msg":"[MESSAGE]"}
11-09-2018 11:25:37 AM {"user_name":"root","password":"zkp658rv","phone_no":"8801840963472","msg":"[MESSAGE]"}
11-09-2018 11:25:42 AM {"user_name":"root","password":"zkp658rv","phone_no":"8801340963472","msg":"[MESSAGE]"}
11-09-2018 11:25:53 AM {"user_name":"root","password":"zkp658rv","phone_no":"8801340963472","msg":"[MESSAGE]"}
11-09-2018 11:26:03 AM {"user_name":"root","password":"zkp658rv","phone_no":"8801340963472","msg":"[MESSAGE]"}
11-09-2018 11:26:37 AM {"user_name":"nitol","password":"nitol321","phone_no":"[TO]","msg":"[MESSAGE]"}
11-09-2018 11:26:49 AM {"user_name":"nitol","password":"nitol321","phone_no":"01740963472","msg":"[MESSAGE]"}
11-09-2018 11:27:11 AM {"user_name":"nitol","password":"nitol321","phone_no":"01740963472","msg":"[MESSAGE]"}
11-09-2018 11:27:49 AM {"user_name":"nitol","password":"nitol321","phone_no":"01740963472","msg":"[MESSAGE]"}
11-09-2018 11:28:25 AM {"user_name":"nitol","password":"nitol321","phone_no":"01740963472","msg":"[MESSAGE]"}
11-09-2018 12:38:02 PM {"user_name":"nitol","password":"nitol321","phone_no":"01740963472","msg":"[MESSAGE]"}
12-09-2018 07:36:05 AM []
19-09-2018 06:44:29 AM []
19-09-2018 06:46:25 AM []
19-09-2018 06:46:50 AM []
19-09-2018 06:48:35 AM []
19-09-2018 06:51:30 AM []
19-09-2018 06:51:36 AM {"user_name":"root","password":"zkp658rv","phone_no":"[TO]","msg":"[MESSAGE]"}
19-09-2018 06:51:48 AM {"user_name":"root","password":"zkp658rv","phone_no":"01740963472","msg":"[MESSAGE]"}
19-09-2018 06:55:38 AM {"user_name":"root","password":"zkp658rv","phone_no":"01740963472","msg":"[MESSAGE]"}
19-09-2018 06:56:13 AM {"user_name":"root","password":"zkp658rv","phone_no":"01740963472","msg":"[MESSAGE]"}
19-09-2018 06:56:30 AM {"user_name":"root","password":"zkp658rv","phone_no":"01740963472","msg":"[MESSAGE]"}
19-09-2018 06:56:40 AM {"user_name":"root","password":"zkp658rv","phone_no":"01740963472","msg":"[MESSAGE]"}
19-09-2018 06:57:09 AM {"user_name":"root","password":"zkp658rv","phone_no":"01740963472","msg":"[MESSAGE]"}
19-09-2018 06:57:49 AM {"user_name":"root","password":"zkp658rv","phone_no":"01740963472","msg":"[MESSAGE]"}
19-09-2018 06:58:03 AM {"user_name":"root","password":"zkp658rv","phone_no":"01740963472","msg":"[MESSAGE]"}
19-09-2018 06:58:17 AM {"user_name":"root","password":"zkp658rv","phone_no":"01740963472","msg":"[MESSAGE]"}
19-09-2018 06:59:33 AM {"user_name":"root","password":"zkp658rv","phone_no":"01740963472","msg":"[MESSAGE]"}
19-09-2018 07:06:38 AM {"user_name":"root","password":"zkp658rv","phone_no":"01740963472","msg":"[MESSAGE]"}
19-09-2018 07:06:40 AM {"user_name":"root","password":"zkp658rv","phone_no":"01740963472","msg":"[MESSAGE]"}
19-09-2018 07:07:01 AM {"user_name":"root","password":"zkp658rv","phone_no":"01740963472","msg":"[MESSAGE]"}
19-09-2018 07:07:30 AM {"user_name":"root","password":"zkp658rv","phone_no":"01740963472","msg":"[MESSAGE]"}
19-09-2018 07:07:49 AM {"user_name":"root","password":"zkp658rv","phone_no":"8801740963472","msg":"[MESSAGE]"}
19-09-2018 07:19:31 AM {"user_name":"root","password":"zkp658rv","phone_no":"8801740963472","msg":"[MESSAGE]"}
19-09-2018 07:20:18 AM {"user_name":"root","password":"zkp658rv","phone_no":"8801740963472","msg":"[MESSAGE]"}
19-09-2018 07:20:37 AM {"user_name":"root","password":"zkp658rv","phone_no":"8801740963472","msg":"[MESSAGE]"}
19-09-2018 07:21:07 AM {"phone_no":"8801740963472","msg":"[MESSAGE]"}
19-09-2018 07:22:12 AM {"phone_no":"8801740963472","msg":"[MESSAGE]"}
19-09-2018 07:46:38 AM []
19-09-2018 07:46:51 AM []
19-09-2018 07:46:53 AM []
19-09-2018 07:47:05 AM []
19-09-2018 07:48:26 AM {"phone_no":"8801740963472","msg":"[MESSAGE]"}
19-09-2018 09:27:43 AM []
19-09-2018 09:28:35 AM {"phone_no":["8801618335999","8801738097558","8801618335999"],"msg":"Message from json by api"}
19-09-2018 09:28:55 AM {"phone_no":["8801618335999","8801738097558","8801618335999"],"msg":"Message from json by api"}
19-09-2018 09:29:06 AM {"phone_no":["8801618335999","8801738097558","8801618335999"],"msg":"Message from json by api"}
19-09-2018 09:30:28 AM []
19-09-2018 09:30:39 AM {"phone_no":["8801740963472","8801738097558"],"msg":"Message from json by api"}
19-09-2018 09:30:55 AM []
19-09-2018 09:31:08 AM []
19-09-2018 09:31:09 AM []
19-09-2018 09:31:18 AM {"phone_no":["8801740963472","8801738097558"],"msg":"Message from json by api"}
19-09-2018 09:31:26 AM []
19-09-2018 09:33:01 AM ["{\"phone_no\":8801740963472,\"msg\":\"Message from json\"}"]
19-09-2018 09:33:02 AM ["{\"phone_no\":8801740963472,\"msg\":\"Message from json\"}"]
19-09-2018 09:39:51 AM {"phone_no":["8801740963472","880165763472"]}
19-09-2018 09:40:34 AM {"msg":"Test json message","phone_no":["8801740963472","880165763472"]}
19-09-2018 09:41:39 AM {"phone_no":"01740963472","msg":"Test JSON Message"}
19-09-2018 09:42:00 AM [{"phone_no":"01740963472","msg":"Test JSON Message"}]
19-09-2018 09:42:46 AM {"phone_no":["01740963472"],"msg":["Test JSON Message"]}
19-09-2018 09:43:10 AM {"phone_no":["01740963472"],"msg":"Test JSON Message"}
19-09-2018 09:43:23 AM {"phone_no":["01740963472"]}
19-09-2018 09:43:30 AM {"phone_no":["01740963472"]}
19-09-2018 09:44:52 AM ["{\"phone_no\":8801740963472,\"msg\":\"Message from json\"}"]
19-09-2018 09:47:34 AM {"phone_no":["8801740963472","8801740963472"],"msg":"Message from json"}
19-09-2018 09:47:42 AM {"phone_no":["8801740963472","8801740963472"],"msg":"Message from json"}
19-09-2018 09:47:57 AM {"phone_no":["8801740963472","8801740963472"],"msg":"Message from json"}
19-09-2018 09:49:31 AM {"phone_no":["8801740963472","8801740963472"],"msg":"Message from json"}
19-09-2018 09:49:32 AM {"phone_no":["8801740963472","8801740963472"],"msg":"Message from json"}
19-09-2018 09:49:53 AM {"phone_no":["8801740963472","8801740963472"],"msg":"Message from json"}
19-09-2018 09:50:01 AM {"phone_no":["8801740963472","8801740963472"],"msg":"Message from json"}
19-09-2018 09:50:17 AM {"phone_no":["8801740963472","8801740963472"],"msg":"Message from json"}
19-09-2018 09:50:27 AM {"phone_no":["8801740963472","8801740963472"],"msg":"Message from json"}
19-09-2018 09:50:35 AM {"phone_no":["8801740963472","8801740963472"],"msg":"Message from json"}
19-09-2018 09:50:52 AM {"phone_o":["8801740963472","8801740963472"],"msg":"Message from json"}
19-09-2018 09:51:14 AM {"phone_no":["8801740963472","8801740963472"],"msg":"Message from json"}
19-09-2018 09:51:22 AM {"phone_no":["8801740963472","8801740963472"],"msg":"Message from json"}
19-09-2018 09:51:42 AM {"phone_no":["8801740963472","8801740963472"],"msg":"Message from json"}
19-09-2018 09:52:42 AM {"phone_no":["8801740963472","8801740963472"],"msg":"Message from json"}
19-09-2018 09:55:32 AM {"phone_no":["8801740963472","8801740963472"],"msg":"Message from json"}
19-09-2018 09:55:44 AM {"phone_no":["8801740963472","8801740963472"],"msg":"Message from json"}
19-09-2018 09:56:04 AM {"phone_no":["8801740963472","8801740963472"],"msg":"Message from json"}
19-09-2018 09:57:44 AM {"phone_no":["8801740963472","8801740963472"],"msg":"Message from json"}
19-09-2018 09:58:35 AM {"phone_no":["8801740963472","8801740963472"],"msg":"Message from json"}
19-09-2018 09:59:03 AM {"phone_no":["8801740963472","8801740963472"],"msg":"Message from json"}
19-09-2018 09:59:18 AM {"phone_no":["8801740963472","8801740963472"],"msg":"Message from json"}
19-09-2018 09:59:27 AM {"phone_no":["8801740963472","8801740963472"],"msg":"Message from json"}
19-09-2018 09:59:37 AM {"phone_no":["8801740963472","8801740963472"],"msg":"Message from json"}
19-09-2018 09:59:53 AM []
19-09-2018 10:00:00 AM {"user_name":"root","password":"zkp658rv","phone_no":"8801740963472","msg":"[MESSAGE]"}
19-09-2018 10:00:12 AM {"user_name":"root","password":"zkp658rv","phone_no":"8801740963472","msg":"[MESSAGE]"}
19-09-2018 10:00:21 AM {"8801740963472":null,"msg":"[MESSAGE]"}
19-09-2018 10:00:30 AM {"phone_no":"8801740963472","msg":"[MESSAGE]"}
19-09-2018 10:00:49 AM {"phone_no":"8801740963472","msg":"[MESSAGE]"}
19-09-2018 10:00:54 AM {"phone_no":["8801740963472","8801740963472"],"msg":"Message from json"}
19-09-2018 10:01:03 AM {"phone_no":["8801740963472","8801740963472"],"msg":"Message from json"}
19-09-2018 10:01:29 AM {"phone_no":["8801740963472","8801740963472"],"msg":"Message from json"}
19-09-2018 10:01:48 AM {"phone_no":["8801740963472","8801740963472"],"msg":"Message from json"}
19-09-2018 10:02:03 AM {"phone_no":["8801740963472","8801740963472"],"msg":"Message from json"}
19-09-2018 10:02:36 AM {"phone_no":["8801740963472","8801740963472"],"msg":"Message from json"}
19-09-2018 10:02:56 AM {"phone_no":["8801740963472","8801740963472"],"msg":"Message from json"}
19-09-2018 10:03:14 AM {"phone_no":["8801740963472","8801740963472"],"msg":"Message from json"}
19-09-2018 10:03:46 AM {"phone_no":["8801740963472","8801740963472"],"msg":"Message from json"}
19-09-2018 10:03:53 AM {"phone_no":["8801740963472","8801740963472"],"msg":"Message from json"}
19-09-2018 10:04:12 AM {"phone_no":["8801740963472","8801740963472"],"msg":"Message from json"}
19-09-2018 10:04:22 AM {"phone_no":["8801740963472","8801740963472"],"msg":"Message from json"}
19-09-2018 10:04:36 AM {"phone_no":["8801740963472","8801740963472"],"msg":"Message from json"}
19-09-2018 10:06:21 AM {"phone_no":["8801740963472","8801740963472"],"msg":"Message from json"}
19-09-2018 10:06:33 AM {"phone_no":["8801740963472","8801740963472"],"msg":"Message from json"}
19-09-2018 10:06:46 AM {"phone_no":["8801740963472","8801740963472"],"msg":"Message from json"}
19-09-2018 10:06:57 AM {"phone_no":["8801740963472","8801740963472"],"msg":"Message from json"}
19-09-2018 10:07:10 AM {"phone_no":["8801740963472","8801740963472"],"msg":"Message from json"}
19-09-2018 10:08:19 AM {"phone_no":["8801740963472","8801740963472"],"msg":"Message from json"}
19-09-2018 10:08:31 AM {"phone_no":["8801740963472","8801740963472"],"msg":"Message from json"}
19-09-2018 10:08:46 AM {"phone_no":["8801740963472","8801740963472"],"msg":"Message from json"}
19-09-2018 10:09:11 AM {"phone_no":["8801740963472","8801740963472"],"msg":"Message from json"}
19-09-2018 10:09:34 AM {"phone_no":["8801740963472","8801740963472"],"msg":"Message from json"}
19-09-2018 10:09:54 AM {"phone_no":["8801740963472","8801740963472"],"msg":"Message from json"}
19-09-2018 10:10:04 AM {"phone_no":["8801740963472","8801740963472"],"msg":"Message from json"}
19-09-2018 10:10:23 AM {"phone_no":["8801740963472","8801740963472"],"msg":"Message from json"}
19-09-2018 10:10:37 AM {"phone_no":["8801740963472","8801740963472"],"msg":"Message from json"}
19-09-2018 10:11:51 AM {"phone_no":"8801740963472","msg":"[MESSAGE]"}
19-09-2018 10:12:42 AM {"phone_no":["8801740963472","8801740963472"],"msg":"Message from json"}
19-09-2018 10:28:01 AM {"phone_no":"8801740963472","msg":"[MESSAGE]"}
19-09-2018 10:28:16 AM {"phone_no":"8801740963472,017123123","msg":"[MESSAGE]"}
19-09-2018 10:28:47 AM {"phone_no":"[8801740963472,01740963472]","msg":"[MESSAGE]"}
19-09-2018 10:29:07 AM {"phone_no":"8801740963472","msg":"[MESSAGE]"}
19-09-2018 10:48:35 AM {"phone_no":"8801740963472","msg":"[MESSAGE]"}
19-09-2018 11:35:17 AM {"phone_no":"8801740963472","msg":"[MESSAGE]"}
19-09-2018 12:23:24 PM {"user_name":"root","password":"zkp658rv","phone_no":"[TO]","msg":"[MESSAGE]"}
19-09-2018 12:23:31 PM {"user_name":"root","password":"zkp658rv","phone_no":"[TO]","msg":"[MESSAGE]"}
19-09-2018 12:23:38 PM {"user_name":"root","password":"zkp68rv","phone_no":"[TO]","msg":"[MESSAGE]"}
19-09-2018 12:23:57 PM {"user_name":"root","password":"zkp658rv","phone_no":"01740963482","msg":"[MESSAGE]"}
20-09-2018 05:11:56 AM {"user_name":"root","password":"zkp658rv","phone_no":"01740963482","msg":"[MESSAGE]"}
27-09-2018 12:38:23 PM {"source":"wincloud2","action":"message_out","user_id":"wincloud2","from":"Tanvir","to":"01740963472","message":"data message","message_guid":"4d371a13-699f-489d-98ef-ee4c101a7556","message_type":"text","user_info":"7","message_parts":"1"}
27-09-2018 12:40:41 PM []
27-09-2018 12:41:45 PM {"user_name":"wincloud2","password":"supertel123"}
27-09-2018 12:42:24 PM {"user_name":"wincloud2","password":"supertel123"}
27-09-2018 12:42:55 PM {"user_name":"wincloud2","password":"supertel123"}
27-09-2018 12:43:16 PM {"user_name":"wincloud2","password":"supertel123","phone_no":"01740963472"}
27-09-2018 12:43:45 PM {"user_name":"wincloud2","password":"supertel123","phone_no":"01740963472","msg":"Your Google Code Is 2213"}
27-09-2018 12:44:10 PM {"user_name":"wincloud2","password":"supertel123","phone_no":"01740963472","msg":"Your Google Code Is 2213"}
27-09-2018 12:47:23 PM {"user_name":"wincloud2","password":"supertel123","phone_no":"01740963472","msg":"Good Morning, Your Google Code Is 2213"}
27-09-2018 12:51:52 PM {"user_name":"wincloud2","password":"supertel123","phone_no":"01740963472","msg":"Good Morning, Your Google Code Is 2213"}
27-09-2018 12:52:11 PM {"user_name":"wincloud2","password":"supertel123","phone_no":"01740963472","msg":"Good Morning, Your Google Code Is 2213"}
27-09-2018 01:01:09 PM {"user_name":"wincloud2","password":"supertel123","phone_no":"01740963472","msg":"Good Morning, Your Google Code Is 2213"}
27-09-2018 01:01:19 PM {"user_name":"wincloud2","password":"supertel123","phone_no":"01740963472","msg":"Good Morning, Your Google Code Is 2213"}
27-09-2018 01:01:53 PM {"user_name":"wincloud2","password":"supertel123","phone_no":"01740963472","msg":"Good Morning, Your Google Code Is 2213"}
27-09-2018 01:02:05 PM {"user_name":"wincloud2","password":"supertel123","phone_no":"01740963472","msg":"Good Morning, Your Google Code Is 2213"}
27-09-2018 01:02:33 PM {"user_name":"wincloud2","password":"supertel123","phone_no":"01740963472","msg":"Good Morning, Your Google Code Is 2213"}
27-09-2018 01:05:21 PM {"user_name":"wincloud2","password":"supertel123","phone_no":"01740963472","msg":"Good Morning, Your Google Code Is 2213"}
27-09-2018 01:05:40 PM {"user_name":"wincloud2","password":"supertel123","phone_no":"01740963472","msg":"WhatsApp code 971-674. You canlink to verify your phone: v.whatsapp.com\/971674"}
27-09-2018 01:05:57 PM {"user_name":"wincloud2","password":"supertel123","phone_no":"01740963472","msg":"WhatsApp code 971-674. You canlink to verify your phone: v.whatsapp.com\/971674"}
27-09-2018 01:08:39 PM {"user_name":"wincloud2","password":"supertel123","phone_no":"01740963472","msg":"WhatsApp code 971-674. You canlink to verify your phone: v.whatsapp.com\/971674"}
27-09-2018 01:08:46 PM {"user_name":"wincloud2","password":"supertel123","phone_no":"01740963472","msg":"WhatsApp code 971-674. You canlink to verify your phone: v.whatsapp.com\/971674"}
27-09-2018 01:08:54 PM {"user_name":"wincloud2","password":"supertel123","phone_no":"01740963472","msg":"WhatsApp code 971-674. You canlink to verify your phone: v.whatsapp.com\/971674"}
27-09-2018 01:20:21 PM {"user_name":"wincloud2","password":"supertel123","phone_no":"01740963472","msg":"WhatsApp code 971-674. You canlink to verify your phone: v.whatsapp.com\/971674"}
27-09-2018 01:26:04 PM {"user_name":"wincloud2","password":"supertel123","phone_no":"01740963472","msg":"WhatsApp code 971-674. You canlink to verify your phone: v.whatsapp.com\/971674"}
27-09-2018 01:26:25 PM {"user_name":"wincloud2","password":"supertel123","phone_no":"01740963472","msg":"WhatsApp code 971-674. You canlink to verify your phone: v.whatsapp.com\/971674"}
27-09-2018 01:26:40 PM {"user_name":"wincloud2","password":"supertel123","phone_no":"01740963472","msg":"WhatsApp code 971-674. You canlink to verify your phone: v.whatsapp.com\/971674"}
27-09-2018 01:26:47 PM {"user_name":"wincloud2","password":"supertel123","phone_no":"01740963472","msg":"WhatsApp code 971-674. You canlink to verify your phone: v.whatsapp.com\/971674"}
29-09-2018 04:33:03 AM {"user_name":"wincloud2","password":"supertel123","phone_no":"01740963472"}
29-09-2018 04:33:38 AM {"user_name":"wincloud2","password":"supertel123","phone_no":"01740963472","msg":"WhatsApp code 406-381. You canlink to verify your phone: v.whatsapp.com\/406381"}
29-09-2018 04:34:15 AM {"user_name":"wincloud2","password":"supertel123","phone_no":"01740963472","msg":"WhatsApp code 406-381. You canlink to verify your phone: v.whatsapp.com\/406381"}
29-09-2018 04:36:34 AM {"user_name":"wincloud2","password":"supertel123","phone_no":"01740963472","msg":"WhatsApp code 406-381. You canlink to verify your phone: v.whatsapp.com\/406381"}
29-09-2018 04:49:45 AM {"user_name":"wincloud2","password":"supertel123","phone_no":"01740963472","msg":"WhatsApp code 406-381. You canlink to verify your phone: v.whatsapp.com\/406381"}
29-09-2018 04:49:54 AM {"user_name":"wincloud2","password":"supertel123","phone_no":"01740963472","msg":"WhatsApp code 406-381. You canlink to verify your phone: v.whatsapp.com\/ 406381"}
29-09-2018 04:50:00 AM {"user_name":"wincloud2","password":"supertel123","phone_no":"01740963472","msg":"WhatsApp code 406-381. You canlink to verify your phone: v.whatsapp.com\/406381"}
29-09-2018 04:50:05 AM {"user_name":"wincloud2","password":"supertel123","phone_no":"01740963472","msg":"WhatsApp code 406-381. You canlink to verify your phone: v.whatsapp.com\/4 06381"}
29-09-2018 04:50:16 AM {"user_name":"wincloud2","password":"supertel123","phone_no":"01740963472","msg":"WhatsApp code 406-381. You canlink to verify your phone: v.whatsapp.com\/4a6381"}
29-09-2018 04:50:22 AM {"user_name":"wincloud2","password":"supertel123","phone_no":"01740963472","msg":"WhatsApp code 406-381. You canlink to verify your phone: v.whatsapp.com\/426381"}
29-09-2018 04:56:46 AM {"user_name":"wincloud2","password":"supertel123","phone_no":"01740963472","msg":"WhatsApp code 406-381. You canlink to verify your phone: v.whatsapp.com\/426381"}
29-09-2018 04:56:52 AM {"user_name":"wincloud2","password":"supertel123","phone_no":"01740963472","msg":"WhatsApp code 406-381. You canlink to verify your phone: v.whatsapp.com\/4263 1"}
29-09-2018 04:56:57 AM {"user_name":"wincloud2","password":"supertel123","phone_no":"01740963472","msg":"WhatsApp code 406-381. You canlink to verify your phone: v.whatsapp.com\/42631"}
29-09-2018 04:57:01 AM {"user_name":"wincloud2","password":"supertel123","phone_no":"01740963472","msg":"WhatsApp code 406-381. You canlink to verify your phone: v.whatsapp.com\/426312"}
29-09-2018 04:57:11 AM {"user_name":"wincloud2","password":"supertel123","phone_no":"01740963472","msg":"WhatsApp code 406-381. You canlink v.whatsapp.com\/426312 to verify your phone: v.whatsapp.com\/426312"}
29-09-2018 04:57:18 AM {"user_name":"wincloud2","password":"supertel123","phone_no":"01740963472","msg":"WhatsApp code 406-381. You canlink v.whatsapp.com\/416312 to verify your phone: v.whatsapp.com\/426312"}
29-09-2018 04:57:26 AM {"user_name":"wincloud2","password":"supertel123","phone_no":"01740963472","msg":"WhatsApp code 406-381. You canlink v.whatsapp.com\/416312 to verify your phone: v.whatsapp.com\/426312"}
29-09-2018 04:57:34 AM {"user_name":"wincloud2","password":"supertel123","phone_no":"01740963472","msg":"WhatsApp code 406-381. You canlink v.whatsapp.com\/416311 to verify your phone: v.whatsapp.com\/426312"}
29-09-2018 04:57:41 AM {"user_name":"wincloud2","password":"supertel123","phone_no":"01740963472","msg":"WhatsApp code 406-381. You canlink v.whatsapp.com\/416311 to verify your phone: v.whatsapp.com\/426312"}
29-09-2018 04:58:12 AM {"user_name":"wincloud2","password":"supertel123","phone_no":"01740963472","msg":"WhatsApp code 406-381. You canlink v.whatsapp.com\/416311 to verify your phone: v.whatsapp.com\/426312"}
29-09-2018 04:58:14 AM {"user_name":"wincloud2","password":"supertel123","phone_no":"01740963472","msg":"WhatsApp code 406-381. You canlink v.whatsapp.com\/416311 to verify your phone: v.whatsapp.com\/426312"}
29-09-2018 04:58:26 AM {"user_name":"wincloud2","password":"supertel123","phone_no":"01740963472","msg":"WhatsApp code 406-381. You canlink to verify your phone: v.whatsapp.com\/426312"}
29-09-2018 04:58:32 AM {"user_name":"wincloud2","password":"supertel123","phone_no":"01740963472","msg":"WhatsApp code 406-381. You canlink to verify your phone: v.whatsapp.com\/42631"}
29-09-2018 04:58:41 AM {"user_name":"wincloud2","password":"supertel123","phone_no":"01740963472","msg":"WhatsApp code 406-381. You canlink to verify your phone: v.whatsapp.com\/426311"}
29-09-2018 04:59:25 AM {"user_name":"wincloud2","password":"supertel123","phone_no":"01740963472","msg":"WhatsApp code 406-381. You canlink to verify your phone: v.whatsapp.com\/426311"}
29-09-2018 04:59:26 AM {"user_name":"wincloud2","password":"supertel123","phone_no":"01740963472","msg":"WhatsApp code 406-381. You canlink to verify your phone: v.whatsapp.com\/426311"}
29-09-2018 05:00:17 AM {"user_name":"wincloud2","password":"supertel123","phone_no":"01740963472","msg":"WhatsApp code 406-381. You canlink to verify your phone: v.whatsapp.com\/426311"}
29-09-2018 05:02:43 AM {"user_name":"wincloud2","password":"supertel123","phone_no":"01740963472","msg":"WhatsApp code 406-381. You canlink to verify your phone: v.whatsapp.com\/426311"}
29-09-2018 05:02:44 AM {"user_name":"wincloud2","password":"supertel123","phone_no":"01740963472","msg":"WhatsApp code 406-381. You canlink to verify your phone: v.whatsapp.com\/426311"}
29-09-2018 05:03:10 AM {"user_name":"wincloud2","password":"supertel123","phone_no":"01740963472","msg":"WhatsApp code 406-381. You canlink to verify your phone: v.whatsapp.com\/426311"}
29-09-2018 05:03:12 AM {"user_name":"wincloud2","password":"supertel123","phone_no":"01740963472","msg":"WhatsApp code 406-381. You canlink to verify your phone: v.whatsapp.com\/426311"}
29-09-2018 05:03:52 AM {"user_name":"wincloud2","password":"supertel123","phone_no":"01740963472","msg":"WhatsApp code 406-381. You canlink to verify your phone: v.whatsapp.com\/426311"}
29-09-2018 05:03:53 AM {"user_name":"wincloud2","password":"supertel123","phone_no":"01740963472","msg":"WhatsApp code 406-381. You canlink to verify your phone: v.whatsapp.com\/426311"}
29-09-2018 05:07:41 AM {"user_name":"wincloud2","password":"supertel123","phone_no":"01740963472","msg":"WhatsApp code 406-381. You canlink to verify your phone: v.whatsapp.com\/426311"}
29-09-2018 05:07:42 AM {"user_name":"wincloud2","password":"supertel123","phone_no":"01740963472","msg":"WhatsApp code 406-381. You canlink to verify your phone: v.whatsapp.com\/426311"}
29-09-2018 05:07:56 AM {"user_name":"wincloud2","password":"supertel123","phone_no":"01740963472","msg":"WhatsApp code 406-381. You canlink to verify your phone: v.whatsapp.com\/426311"}
29-09-2018 05:08:06 AM {"user_name":"wincloud2","password":"supertel123","phone_no":"01740963472","msg":"WhatsApp code 406-381. You canlink to verify your phone: v.whatsapp.com\/426311"}
29-09-2018 05:08:14 AM {"user_name":"wincloud2","password":"supertel123","phone_no":"01740963472","msg":"WhatsApp code 406-381. You canlink to verify your phone: v.whatsapp.com\/426311"}
29-09-2018 05:08:21 AM {"user_name":"wincloud2","password":"supertel123","phone_no":"01740963472","msg":"WhatsApp code 406-381. You canlink to verify your phone: v.whatsapp.com\/426311"}
29-09-2018 05:08:27 AM {"user_name":"wincloud2","password":"supertel123","phone_no":"01740963472","msg":"WhatsApp code 406-381. You canlink to verify your phone: v.whatsapp.com\/426311"}
29-09-2018 05:08:28 AM {"user_name":"wincloud2","password":"supertel123","phone_no":"01740963472","msg":"WhatsApp code 406-381. You canlink to verify your phone: v.whatsapp.com\/426311"}
29-09-2018 05:09:32 AM {"user_name":"wincloud2","password":"supertel123","phone_no":"01740963472","msg":"WhatsApp code 406-381. You canlink to verify your phone: v.whatsapp.com\/426311"}
29-09-2018 05:09:33 AM {"user_name":"wincloud2","password":"supertel123","phone_no":"01740963472","msg":"WhatsApp code 406-381. You canlink to verify your phone: v.whatsapp.com\/426311"}
29-09-2018 05:09:55 AM {"user_name":"wincloud2","password":"supertel123","phone_no":"01740963472","msg":"WhatsApp code 406-381. You canlink to verify your phone: v.whatsapp.com\/426311"}
29-09-2018 05:10:05 AM {"user_name":"wincloud2","password":"supertel123","phone_no":"01740963472","msg":"WhatsApp code 406-381. You canlink to verify your phone: v.whatsapp.com\/426311"}
29-09-2018 05:10:06 AM {"user_name":"wincloud2","password":"supertel123","phone_no":"01740963472","msg":"WhatsApp code 406-381. You canlink to verify your phone: v.whatsapp.com\/426311"}
29-09-2018 05:10:41 AM {"user_name":"wincloud2","password":"supertel123","phone_no":"01740963472","msg":"WhatsApp code 406-381. You canlink to verify your phone: v.whatsapp.com\/426311"}
29-09-2018 05:10:50 AM {"user_name":"wincloud2","password":"supertel123","phone_no":"01740963472","msg":"WhatsApp code 406-381. You canlink to verify your phone: v.whatsapp.com\/426311"}
29-09-2018 05:10:51 AM {"user_name":"wincloud2","password":"supertel123","phone_no":"01740963472","msg":"WhatsApp code 406-381. You canlink to verify your phone: v.whatsapp.com\/426311"}
29-09-2018 05:11:48 AM {"user_name":"wincloud2","password":"supertel123","phone_no":"01740963472","msg":"WhatsApp code 406-381. You canlink to verify your phone: v.whatsapp.com\/426311"}
29-09-2018 05:12:00 AM {"user_name":"wincloud2","password":"supertel123","phone_no":"01740963472","msg":"WhatsApp code 406-381. You canlink to verify your phone: v.whatsapp.com\/426311"}
29-09-2018 05:12:01 AM {"user_name":"wincloud2","password":"supertel123","phone_no":"01740963472","msg":"WhatsApp code 406-381. You canlink to verify your phone: v.whatsapp.com\/426311"}
29-09-2018 05:12:17 AM {"user_name":"wincloud2","password":"supertel123","phone_no":"01740963472","msg":"WhatsApp code 406-381. You canlink to verify your phone: v.whatsapp.com\/426311"}
29-09-2018 05:12:17 AM {"user_name":"wincloud2","password":"supertel123","phone_no":"01740963472","msg":"WhatsApp code 406-381. You canlink to verify your phone: v.whatsapp.com\/426311"}
29-09-2018 05:12:35 AM {"user_name":"wincloud2","password":"supertel123","phone_no":"01740963472","msg":"WhatsApp code 406-381. You canlink to verify your phone: v.whatsapp.com\/426311"}
29-09-2018 05:12:53 AM {"user_name":"wincloud2","password":"supertel123","phone_no":"01740963472","msg":"WhatsApp code 406-381. You canlink to verify your phone: v.whatsapp.com\/426311"}
29-09-2018 05:12:53 AM {"user_name":"wincloud2","password":"supertel123","phone_no":"01740963472","msg":"WhatsApp code 406-381. You canlink to verify your phone: v.whatsapp.com\/426311"}
29-09-2018 05:13:02 AM {"user_name":"wincloud2","password":"supertel123","phone_no":"01740963472","msg":"WhatsApp code 406-381. You canlink to verify your phone: v.whatsapp.com\/426311"}
29-09-2018 05:14:42 AM {"user_name":"wincloud2","password":"supertel123","phone_no":"01740963472","msg":"WhatsApp code 406-381. You canlink to verify your phone: v.whatsapp.com\/426311"}
29-09-2018 05:14:54 AM {"user_name":"wincloud2","password":"supertel123","phone_no":"01740963472","msg":"WhatsApp code 406-381. You canlink to verify your phone: v.whatsapp.com\/426311"}
29-09-2018 05:14:55 AM {"user_name":"wincloud2","password":"supertel123","phone_no":"01740963472","msg":"WhatsApp code 406-381. You canlink to verify your phone: v.whatsapp.com\/426311"}
29-09-2018 05:15:01 AM {"user_name":"wincloud2","password":"supertel123","phone_no":"01740963472","msg":"WhatsApp code 406-381. You canlink to verify your phone: v.whatsapp.com\/426311"}
29-09-2018 05:15:14 AM {"user_name":"wincloud2","password":"supertel123","phone_no":"01740963472","msg":"WhatsApp code 406-381. You canlink to verify your phone: v.whatsapp.com\/426311"}
29-09-2018 05:15:16 AM {"user_name":"wincloud2","password":"supertel123","phone_no":"01740963472","msg":"WhatsApp code 406-381. You canlink to verify your phone: v.whatsapp.com\/426311"}
29-09-2018 05:15:21 AM {"user_name":"wincloud2","password":"supertel123","phone_no":"01740963472","msg":"WhatsApp code 406-381. You canlink to verify your phone: v.whatsapp.com\/426311"}
29-09-2018 05:15:41 AM {"user_name":"wincloud2","password":"supertel123","phone_no":"01740963472","msg":"WhatsApp code 406-381. You canlink to verify your phone: v.whatsapp.com\/426311"}
29-09-2018 05:15:49 AM {"user_name":"wincloud2","password":"supertel123","phone_no":"01740963472","msg":"WhatsApp code 406-381. You canlink to verify your phone: v.whatsapp.com\/426311"}
29-09-2018 05:15:50 AM {"user_name":"wincloud2","password":"supertel123","phone_no":"01740963472","msg":"WhatsApp code 406-381. You canlink to verify your phone: v.whatsapp.com\/426311"}
29-09-2018 05:16:55 AM {"user_name":"wincloud2","password":"supertel123","phone_no":"01740963472","msg":"WhatsApp code 406-381. You canlink to verify your phone: v.whatsapp.com\/426311"}
29-09-2018 05:16:56 AM {"user_name":"wincloud2","password":"supertel123","phone_no":"01740963472","msg":"WhatsApp code 406-381. You canlink to verify your phone: v.whatsapp.com\/426311"}
29-09-2018 05:17:01 AM {"user_name":"wincloud2","password":"supertel123","phone_no":"01740963472","msg":"WhatsApp code 406-381. You canlink to verify your phone: v.whatsapp.com\/426311"}
29-09-2018 05:17:08 AM {"user_name":"wincloud2","password":"supertel123","phone_no":"01740963472","msg":"WhatsApp code 406-381. You canlink to verify your phone: v.whatsapp.com\/426311"}
29-09-2018 05:17:14 AM {"user_name":"wincloud2","password":"supertel123","phone_no":"01740963472","msg":"WhatsApp code 406-381. You canlink to verify your phone: v.whatsapp.com\/426311"}
29-09-2018 05:17:22 AM {"user_name":"wincloud2","password":"supertel123","phone_no":"01740963472","msg":"WhatsApp code 406-381. You canlink to verify your phone: v.whatsapp.com\/426311"}
29-09-2018 05:20:18 AM {"user_name":"wincloud2","password":"supertel123","phone_no":"01740963472","msg":"WhatsApp code 406-381. You canlink to verify your phone: v.whatsapp.com\/426311"}
29-09-2018 05:20:41 AM {"user_name":"wincloud2","password":"supertel123","phone_no":"01740963472","msg":"WhatsApp code 406-381. You canlink to verify your phone: v.whatsapp.com\/426311"}
29-09-2018 05:20:42 AM {"user_name":"wincloud2","password":"supertel123","phone_no":"01740963472","msg":"WhatsApp code 406-381. You canlink to verify your phone: v.whatsapp.com\/426311"}
29-09-2018 05:20:52 AM {"user_name":"wincloud2","password":"supertel123","phone_no":"01740963472","msg":"WhatsApp code 406-381. You canlink to verify your phone: v.whatsapp.com\/426311"}
29-09-2018 05:21:03 AM {"user_name":"wincloud2","password":"supertel123","phone_no":"01740963472","msg":"WhatsApp code 406-381. You canlink to verify your phone: v.whatsapp.com\/426311"}
29-09-2018 05:21:16 AM {"user_name":"wincloud2","password":"supertel123","phone_no":"01740963472","msg":"WhatsApp code 406-381. You canlink to verify your phone: v.whatsapp.com\/426311"}
29-09-2018 05:21:25 AM {"user_name":"wincloud2","password":"supertel123","phone_no":"01740963472","msg":"WhatsApp code 406-381. You canlink to verify your phone: v.whatsapp.com\/426311"}
29-09-2018 05:23:17 AM {"user_name":"wincloud2","password":"supertel123","phone_no":"01740963472","msg":"WhatsApp code 406-381. You canlink to verify your phone: v.whatsapp.com\/426311"}
29-09-2018 05:23:32 AM {"user_name":"wincloud2","password":"supertel123","phone_no":"01740963472","msg":"WhatsApp code 406-381. You canlink to verify your phone: v.whatsapp.com\/426311"}
29-09-2018 05:23:37 AM {"user_name":"wincloud2","password":"supertel123","phone_no":"01740963472","msg":"WhatsApp code 406-381. You canlink to verify your phone: v.whatsapp.com\/426311"}
29-09-2018 05:23:44 AM {"user_name":"wincloud2","password":"supertel123","phone_no":"01740963472","msg":"WhatsApp code 406-381. You canlink to verify your phone: v.whatsapp.com\/426311"}
29-09-2018 05:24:19 AM {"user_name":"wincloud2","password":"supertel123","phone_no":"01740963472","msg":"WhatsApp code 406-381. You canlink to verify your phone: v.whatsapp.com\/426311"}
29-09-2018 05:24:20 AM {"user_name":"wincloud2","password":"supertel123","phone_no":"01740963472","msg":"WhatsApp code 406-381. You canlink to verify your phone: v.whatsapp.com\/426311"}
29-09-2018 05:24:24 AM {"user_name":"wincloud2","password":"supertel123","phone_no":"01740963472","msg":"WhatsApp code 406-381. You canlink to verify your phone: v.whatsapp.com\/426311"}
29-09-2018 05:24:32 AM {"user_name":"wincloud2","password":"supertel123","phone_no":"01740963472","msg":"WhatsApp code 406-381. You canlink to verify your phone: v.whatsapp.com\/426311"}
29-09-2018 05:24:50 AM {"user_name":"wincloud2","password":"supertel123","phone_no":"01740963472","msg":"WhatsApp code 406-381. You canlink to verify your phone: v.whatsapp.com\/426311"}
29-09-2018 05:25:11 AM {"user_name":"wincloud2","password":"supertel123","phone_no":"01740963472","msg":"WhatsApp code 406-381. You canlink to verify your phone: v.whatsapp.com\/426311"}
29-09-2018 05:25:50 AM {"user_name":"wincloud2","password":"supertel123","phone_no":"01740963472","msg":"WhatsApp code 406-381. You canlink to verify your phone: v.whatsapp.com\/426311"}
29-09-2018 05:25:59 AM {"user_name":"wincloud2","password":"supertel123","phone_no":"01740963472","msg":"WhatsApp code 406-381. You canlink to verify your phone: v.whatsapp.com\/426311"}
29-09-2018 05:26:11 AM {"user_name":"wincloud2","password":"supertel123","phone_no":"01740963472","msg":"WhatsApp code 406-381. You canlink to verify your phone: v.whatsapp.com\/426311"}
29-09-2018 05:26:12 AM {"user_name":"wincloud2","password":"supertel123","phone_no":"01740963472","msg":"WhatsApp code 406-381. You canlink to verify your phone: v.whatsapp.com\/426311"}
29-09-2018 05:26:17 AM {"user_name":"wincloud2","password":"supertel123","phone_no":"01740963472","msg":"WhatsApp code 406-381. You canlink to verify your phone: v.whatsapp.com\/426311"}
29-09-2018 05:26:21 AM {"user_name":"wincloud2","password":"supertel123","phone_no":"01740963472","msg":"WhatsApp code 406-381. You canlink to verify your phone: v.whatsapp.com\/426311"}
29-09-2018 05:26:28 AM {"user_name":"wincloud2","password":"supertel123","phone_no":"01740963472","msg":"WhatsApp code 406-381. You canlink to verify your phone: v.whatsapp.com\/426311"}
29-09-2018 05:28:21 AM {"user_name":"wincloud2","password":"supertel123","phone_no":"01740963472","msg":"WhatsApp code 406-381. You canlink to verify your phone: v.whatsapp.com\/426311"}
29-09-2018 05:29:27 AM {"user_name":"wincloud2","password":"supertel123","phone_no":"01740963472","msg":"WhatsApp code 406-381. You canlink to verify your phone: v.whatsapp.com\/426311"}
29-09-2018 05:29:28 AM {"user_name":"wincloud2","password":"supertel123","phone_no":"01740963472","msg":"WhatsApp code 406-381. You canlink to verify your phone: v.whatsapp.com\/426311"}
29-09-2018 05:29:37 AM {"user_name":"wincloud2","password":"supertel123","phone_no":"01740963472","msg":"WhatsApp code 406-381. You canlink to verify your phone: v.whatsapp.com\/426311"}
29-09-2018 05:29:56 AM {"user_name":"wincloud2","password":"supertel123","phone_no":"01740963472","msg":"WhatsApp code 406-381. You canlink to verify your phone: v.whatsapp.com\/426311"}
29-09-2018 05:30:08 AM {"user_name":"wincloud2","password":"supertel123","phone_no":"01740963472","msg":"WhatsApp code 406-381. You canlink to verify your phone: v.whatsapp.com\/426311"}
29-09-2018 05:30:20 AM {"user_name":"wincloud2","password":"supertel123","phone_no":"01740963472","msg":"WhatsApp code 406-381. You canlink to verify your phone: v.whatsapp.com\/426311"}
29-09-2018 05:30:41 AM {"user_name":"wincloud2","password":"supertel123","phone_no":"01740963472","msg":"WhatsApp code 406-381. You canlink to verify your phone: v.whatsapp.com\/426311"}
29-09-2018 05:30:42 AM {"user_name":"wincloud2","password":"supertel123","phone_no":"01740963472","msg":"WhatsApp code 406-381. You canlink to verify your phone: v.whatsapp.com\/426311"}
29-09-2018 05:30:50 AM {"user_name":"wincloud2","password":"supertel123","phone_no":"01740963472","msg":"WhatsApp code 406-381. You canlink to verify your phone: v.whatsapp.com\/426111"}
29-09-2018 05:31:36 AM {"user_name":"wincloud2","password":"supertel123","phone_no":"01740963472","msg":"WhatsApp code 406-381. You canlink to verify your phone: v.whatsapp.com\/426111"}
29-09-2018 05:33:19 AM {"user_name":"wincloud2","password":"supertel123","phone_no":"01740963472","msg":"WhatsApp code 406-381. You canlink to verify your phone: v.whatsapp.com\/426111"}
29-09-2018 05:34:57 AM {"user_name":"wincloud2","password":"supertel123","phone_no":"01740963472","msg":"WhatsApp code 406-381. You canlink to verify your phone: v.whatsapp.com\/426111"}
29-09-2018 05:36:29 AM {"user_name":"wincloud2","password":"supertel123","phone_no":"01740963472","msg":"WhatsApp code 406-381. You canlink to verify your phone: v.whatsapp.com\/426111"}
29-09-2018 05:36:39 AM {"user_name":"wincloud2","password":"supertel123","phone_no":"01740963472","msg":"WhatsApp code 406-381. You canlink to verify your phone: v.whatsapp.com\/426111"}
29-09-2018 05:38:33 AM {"user_name":"wincloud2","password":"supertel123","phone_no":"01740963472","msg":"WhatsApp code 406-381. You canlink to verify your phone: v.whatsapp.com\/426111"}
29-09-2018 05:39:18 AM {"user_name":"wincloud2","password":"supertel123","phone_no":"01740963472","msg":"WhatsApp code 406-381. You canlink to verify your phone: v.whatsapp.com\/426111"}
29-09-2018 05:40:41 AM {"user_name":"wincloud2","password":"supertel123","phone_no":"01740963472","msg":"WhatsApp code 406-381. You canlink to verify your phone: v.whatsapp.com\/426111"}
29-09-2018 05:42:15 AM {"user_name":"wincloud2","password":"supertel123","phone_no":"01740963472","msg":"WhatsApp code 406-381. You canlink to verify your phone: v.whatsapp.com\/426111"}
29-09-2018 05:42:36 AM {"user_name":"wincloud2","password":"supertel123","phone_no":"01740963472","msg":"WhatsApp code 406-381. You canlink to verify your phone: v.whatsapp.com\/426111"}
29-09-2018 05:42:57 AM {"user_name":"wincloud2","password":"supertel123","phone_no":"01740963472","msg":"WhatsApp code 406-381. You canlink to verify your phone: v.whatsapp.com\/426111"}
29-09-2018 05:43:38 AM {"user_name":"wincloud2","password":"supertel123","phone_no":"01740963472","msg":"WhatsApp code 406-381. You canlink to verify your phone: v.whatsapp.com\/426111"}
29-09-2018 05:43:58 AM {"user_name":"wincloud2","password":"supertel123","phone_no":"01740963472","msg":"WhatsApp code 406-381. You canlink to verify your phone: v.whatsapp.com\/426111"}
29-09-2018 05:44:16 AM {"user_name":"wincloud2","password":"supertel123","phone_no":"01740963472","msg":"WhatsApp code 406-381. You canlink to verify your phone: v.whatsapp.com\/426111"}
29-09-2018 05:44:53 AM {"user_name":"wincloud2","password":"supertel123","phone_no":"01740963472","msg":"WhatsApp code 406-381. You canlink to verify your phone: v.whatsapp.com\/426111"}
29-09-2018 05:45:15 AM {"user_name":"wincloud2","password":"supertel123","phone_no":"01740963472","msg":"WhatsApp code 406-381. You canlink to verify your phone: v.whatsapp.com\/426111"}
29-09-2018 05:46:55 AM {"user_name":"wincloud2","password":"supertel123","phone_no":"01740963472","msg":"WhatsApp code 406-381. You canlink to verify your phone: v.whatsapp.com\/426111"}
29-09-2018 05:47:01 AM {"user_name":"wincloud2","password":"supertel123","phone_no":"01740963472","msg":"WhatsApp code 406-381. You canlink to verify your phone: v.whatsapp.com\/421111"}
29-09-2018 05:48:53 AM {"user_name":"wincloud2","password":"supertel123","phone_no":"01740963472","msg":"WhatsApp code 406-381. You canlink to verify your phone: v.whatsapp.com\/421111"}
29-09-2018 05:50:17 AM {"user_name":"wincloud2","password":"supertel123","phone_no":"01740963472","msg":"WhatsApp code 406-381. You canlink to verify your phone: v.whatsapp.com\/421111"}
29-09-2018 05:50:27 AM {"user_name":"wincloud2","password":"supertel123","phone_no":"01740963472","msg":"WhatsApp code 406-381. You canlink to verify your phone: v.whatsapp.com\/421111"}
29-09-2018 05:51:10 AM {"user_name":"wincloud2","password":"supertel123","phone_no":"01740963472","msg":"WhatsApp code 406-381. You canlink to verify your phone: v.whatsapp.com\/421111"}
29-09-2018 05:51:18 AM {"user_name":"wincloud2","password":"supertel123","phone_no":"01740963472","msg":"WhatsApp code 406-381. You canlink to verify your phone: v.whatsapp.com\/421111"}
29-09-2018 05:51:36 AM {"user_name":"wincloud2","password":"supertel123","phone_no":"01740963472","msg":"WhatsApp code 406-381. You canlink to verify your phone: v.whatsapp.com\/421111"}
29-09-2018 05:51:50 AM {"user_name":"wincloud2","password":"supertel123","phone_no":"01740963472","msg":"WhatsApp code 406-381. You canlink to verify your phone: v.whatsapp.com\/421111"}
29-09-2018 06:05:58 AM {"user_name":"wincloud2","password":"supertel123","phone_no":"01740963472","msg":"WhatsApp code 406-381. You canlink to verify your phone: v.whatsapp.com\/421111"}
29-09-2018 06:06:37 AM {"user_name":"wincloud2","password":"supertel123","phone_no":"01740963472","msg":"WhatsApp code 406-381. You canlink to verify your phone: v.whatsapp.com\/421111"}
29-09-2018 06:06:53 AM {"user_name":"wincloud2","password":"supertel123","phone_no":"01740963472","msg":"WhatsApp code 406-381. You canlink to verify your phone: v.whatsapp.com\/421212"}
29-09-2018 06:07:21 AM {"user_name":"wincloud2","password":"supertel123","phone_no":"01740963472","msg":"WhatsApp code 406-381. You canlink to verify your phone: v.whatsapp.com\/421212"}
29-09-2018 06:07:47 AM {"user_name":"wincloud2","password":"supertel123","phone_no":"01740963472","msg":"WhatsApp code 406-381. You canlink to verify your phone: v.whatsapp.com\/421212"}
29-09-2018 06:53:24 AM {"user_name":"wincloud2","password":"supertel123","phone_no":"01740963472","msg":"WhatsApp code 406-381. You canlink to verify your phone: v.whatsapp.com\/421212"}
29-09-2018 06:53:37 AM {"user_name":"wincloud2","password":"supertel123","phone_no":"01740963472","msg":"WhatsApp code 406-381. You canlink to verify your phone: v.whatsapp.com\/421212"}
29-09-2018 06:54:03 AM {"user_name":"wincloud2","password":"supertel123","phone_no":"01740963472","msg":"WhatsApp code 406-381. You canlink to verify your phone: v.whatsapp.com\/421212"}
29-09-2018 06:54:26 AM {"user_name":"wincloud2","password":"supertel123","phone_no":"01740963472","msg":"WhatsApp code 406-381. You canlink to verify your phone: v.whatsapp.com\/421212"}
29-09-2018 06:54:49 AM {"user_name":"wincloud2","password":"supertel123","phone_no":"01740963472","msg":"WhatsApp code 406-381. You canlink to verify your phone: v.whatsapp.com\/421212"}
29-09-2018 06:55:39 AM {"user_name":"wincloud2","password":"supertel123","phone_no":"01740963472","msg":"WhatsApp code 406-381. You canlink to verify your phone: v.whatsapp.com\/421212"}
29-09-2018 06:56:08 AM {"user_name":"wincloud2","password":"supertel123","phone_no":"01740963472","msg":"WhatsApp code 406-381. You canlink to verify your phone: v.whatsapp.com\/421212"}
29-09-2018 07:12:04 AM {"user_name":"wincloud2","password":"supertel123","phone_no":"01740963472","msg":"WhatsApp code 406-381. You canlink to verify your phone: v.whatsapp.com\/421212"}
29-09-2018 07:16:41 AM {"user_name":"wincloud2","password":"supertel123","phone_no":"01740963472","msg":"WhatsApp code 406-381. You canlink to verify your phone: v.whatsapp.com\/421212"}
29-09-2018 07:50:37 AM {"user_name":"wincloud2","password":"supertel123","phone_no":"01740963472","msg":"WhatsApp code 406-381. You canlink to verify your phone: v.whatsapp.com\/421212"}
29-09-2018 08:19:10 AM {"user_name":"wincloud2","password":"supertel123","phone_no":"01740963472","msg":"WhatsApp code 406-381. You canlink to verify your phone: v.whatsapp.com\/421212"}
29-09-2018 08:23:33 AM {"user_name":"wincloud2","password":"supertel123","phone_no":"01740963472","msg":"WhatsApp code 406-381. You canlink to verify your phone: v.whatsapp.com\/421212"}
29-09-2018 08:23:55 AM {"user_name":"wincloud2","password":"supertel123","phone_no":"01740963472","msg":"WhatsApp code 406-381. You canlink to verify your phone: v.whatsapp.com\/421212"}
29-09-2018 08:24:29 AM {"user_name":"wincloud2","password":"supertel123","phone_no":"01740963472","msg":"WhatsApp code 406-381. You canlink to verify your phone: v.whatsapp.com\/421212"}
29-09-2018 08:25:09 AM {"user_name":"wincloud2","password":"supertel123","phone_no":"01740963472","msg":"WhatsApp code 406-381. You canlink to verify your phone: v.whatsapp.com\/421212"}
29-09-2018 08:25:26 AM {"user_name":"wincloud2","password":"supertel123","phone_no":"01740963472","msg":"WhatsApp code 406-381. You canlink to verify your phone: v.whatsapp.com\/421212"}
29-09-2018 08:27:22 AM {"user_name":"wincloud2","password":"supertel123","phone_no":"01740963472","msg":"WhatsApp code 406-381. You canlink to verify your phone: v.whatsapp.com\/421212"}
29-09-2018 08:28:09 AM {"user_name":"wincloud2","password":"supertel123","phone_no":"01740963472","msg":"WhatsApp code 406-381. You canlink to verify your phone: v.whatsapp.com\/421212"}
29-09-2018 08:28:15 AM {"user_name":"wincloud2","password":"supertel123","phone_no":"01740963472","msg":"WhatsApp code 406-381. You canlink to verify your phone: v.whatsapp.com\/421212"}
29-09-2018 08:28:16 AM {"user_name":"wincloud2","password":"supertel123","phone_no":"01740963472","msg":"WhatsApp code 406-381. You canlink to verify your phone: v.whatsapp.com\/421212"}
29-09-2018 08:28:46 AM {"user_name":"wincloud2","password":"supertel123","phone_no":"01740963472","msg":"WhatsApp code 406-381. You canlink to verify your phone: v.whatsapp.com\/421212"}
29-09-2018 08:29:25 AM {"user_name":"wincloud2","password":"supertel123","phone_no":"01740963472","msg":"WhatsApp code 406-381. You canlink to verify your phone: v.whatsapp.com\/421212"}
29-09-2018 08:29:33 AM {"user_name":"wincloud2","password":"supertel123","phone_no":"01740963472","msg":"WhatsApp code 406-381. You canlink to verify your phone: v.whatsapp.com\/421212"}
29-09-2018 08:29:40 AM {"user_name":"wincloud2","password":"supertel123","phone_no":"01740963472","msg":"WhatsApp code 406-381. You canlink to verify your phone: v.whatsapp.com\/421212"}
29-09-2018 08:29:41 AM {"user_name":"wincloud2","password":"supertel123","phone_no":"01740963472","msg":"WhatsApp code 406-381. You canlink to verify your phone: v.whatsapp.com\/421212"}
29-09-2018 08:30:01 AM {"user_name":"wincloud2","password":"supertel123","phone_no":"01740963472","msg":"WhatsApp code 406-381. You canlink to verify your phone: v.whatsapp.com\/421212"}
29-09-2018 08:30:14 AM {"user_name":"wincloud2","password":"supertel123","phone_no":"01740963472","msg":"WhatsApp code 406-381. You canlink to verify your phone: v.whatsapp.com\/421212"}
29-09-2018 08:30:23 AM {"user_name":"wincloud2","password":"supertel123","phone_no":"01740963472","msg":"WhatsApp code 406-381. You canlink to verify your phone: v.whatsapp.com\/421212"}
29-09-2018 08:30:39 AM {"user_name":"wincloud2","password":"supertel123","phone_no":"01740963472","msg":"WhatsApp code 406-381. You canlink to verify your phone: v.whatsapp.com\/421212"}
29-09-2018 08:31:38 AM {"user_name":"wincloud2","password":"supertel123","phone_no":"01740963472","msg":"WhatsApp code 406-381. You canlink to verify your phone: v.whatsapp.com\/421212"}
29-09-2018 08:32:11 AM {"user_name":"wincloud2","password":"supertel123","phone_no":"01740963472","msg":"WhatsApp code 406-381. You canlink to verify your phone: v.whatsapp.com\/421212"}
29-09-2018 08:32:36 AM {"user_name":"wincloud2","password":"supertel123","phone_no":"01740963472","msg":"WhatsApp code 406-381. You canlink to verify your phone: v.whatsapp.com\/421212"}
29-09-2018 08:32:45 AM {"user_name":"wincloud2","password":"supertel123","phone_no":"01740963472","msg":"WhatsApp code 406-381. You canlink to verify your phone: v.whatsapp.com\/421212"}
29-09-2018 08:33:10 AM {"user_name":"wincloud2","password":"supertel123","phone_no":"01740963472","msg":"WhatsApp code 406-381. You canlink to verify your phone: v.whatsapp.com\/421212"}
29-09-2018 08:33:26 AM {"user_name":"wincloud2","password":"supertel123","phone_no":"01740963472","msg":"WhatsApp code 406-381. You canlink to verify your phone: v.whatsapp.com\/421212"}
29-09-2018 08:34:23 AM {"user_name":"wincloud2","password":"supertel123","phone_no":"01740963472","msg":"WhatsApp code 406-381. You canlink to verify your phone: v.whatsapp.com\/421212"}
29-09-2018 08:34:42 AM {"user_name":"wincloud2","password":"supertel123","phone_no":"01740963472","msg":"WhatsApp code 406-381. You canlink to verify your phone: v.whatsapp.com\/421212"}
29-09-2018 08:34:56 AM {"user_name":"wincloud2","password":"supertel123","phone_no":"01740963472","msg":"WhatsApp code 406-381. You canlink to verify your phone: v.whatsapp.com\/421212"}
29-09-2018 08:35:29 AM {"user_name":"wincloud2","password":"supertel123","phone_no":"01740963472","msg":"WhatsApp code 406-381. You canlink to verify your phone: v.whatsapp.com\/421212"}
29-09-2018 08:39:35 AM {"user_name":"wincloud2","password":"supertel123","phone_no":"01740963472","msg":"WhatsApp code 406-381. You canlink to verify your phone: v.whatsapp.com\/421212"}
29-09-2018 08:40:07 AM {"user_name":"wincloud2","password":"supertel123","phone_no":"01740963472","msg":"WhatsApp code 406-381. You canlink to verify your phone: v.whatsapp.com\/421212"}
29-09-2018 08:40:20 AM {"user_name":"wincloud2","password":"supertel123","phone_no":"01740963472","msg":"WhatsApp code 406-381. You canlink to verify your phone: v.whatsapp.com\/421212"}
29-09-2018 08:40:40 AM {"user_name":"wincloud2","password":"supertel123","phone_no":"01740963472","msg":"WhatsApp code 406-381. You canlink to verify your phone: v.whatsapp.com\/421212"}
29-09-2018 08:41:40 AM {"user_name":"wincloud2","password":"supertel123","phone_no":"01740963472","msg":"WhatsApp code 406-381. You canlink to verify your phone: v.whatsapp.com\/421212"}
29-09-2018 08:41:59 AM {"user_name":"wincloud2","password":"supertel123","phone_no":"01740963472","msg":"WhatsApp code 406-381. You canlink to verify your phone: v.whatsapp.com\/421212"}
29-09-2018 08:42:19 AM {"user_name":"wincloud2","password":"supertel123","phone_no":"01740963472","msg":"WhatsApp code 406-381. You canlink to verify your phone: v.whatsapp.com\/421212"}
29-09-2018 08:42:34 AM {"user_name":"wincloud2","password":"supertel123","phone_no":"01740963472","msg":"WhatsApp code 406-381. You canlink to verify your phone: v.whatsapp.com\/421212"}
29-09-2018 09:02:03 AM {"user_name":"wincloud2","password":"supertel123","phone_no":"01740963472","msg":"WhatsApp code 406-381. You canlink to verify your phone: v.whatsapp.com\/421212"}
29-09-2018 09:02:22 AM {"user_name":"wincloud2","password":"supertel123","phone_no":"01740963472","msg":"WhatsApp code 406-381. You canlink to verify your phone: v.whatsapp.com\/421212"}
29-09-2018 09:07:22 AM {"user_name":"wincloud2","password":"supertel123","phone_no":"01740963472","msg":"WhatsApp code 406-381. You canlink to verify your phone: v.whatsapp.com\/421212"}
29-09-2018 09:07:38 AM {"user_name":"wincloud2","password":"supertel123","phone_no":"01740963472","msg":"WhatsApp code 406-381. You can link to verify your phone: v.whatsapp.com\/421212"}
29-09-2018 09:08:31 AM {"user_name":"wincloud2","password":"supertel123","phone_no":"01740963472","msg":"WhatsApp code 406-381. You can link to verify your phone: v.whatsapp.com\/421212"}
29-09-2018 09:10:10 AM {"user_name":"wincloud2","password":"supertel123","phone_no":"01740963472","msg":"WhatsApp code 406-381. You can link to verify your phone: v.whatsapp.com\/4212121"}
29-09-2018 09:10:21 AM {"user_name":"wincloud2","password":"supertel123","phone_no":"01740963472","msg":"WhatsApp code 406-381. You can link to verify your phone: v.whatsapp.com\/4212121"}
29-09-2018 09:10:24 AM {"user_name":"wincloud2","password":"supertel123","phone_no":"01740963472","msg":"WhatsApp code 406-381. You can link to verify your phone: v.whatsapp.com\/4212121"}
29-09-2018 09:10:27 AM {"user_name":"wincloud2","password":"supertel123","phone_no":"01740963472","msg":"WhatsApp code 406-381. You can link to verify your phone: v.whatsapp.com\/4212121"}
29-09-2018 09:10:28 AM {"user_name":"wincloud2","password":"supertel123","phone_no":"01740963472","msg":"WhatsApp code 406-381. You can link to verify your phone: v.whatsapp.com\/4212121"}
29-09-2018 09:11:02 AM {"user_name":"wincloud2","password":"supertel123","phone_no":"01740963472","msg":"WhatsApp code 406-381. You can link to verify your phone: v.whatsapp.com\/4212121"}
29-09-2018 09:11:03 AM {"user_name":"wincloud2","password":"supertel123","phone_no":"01740963472","msg":"WhatsApp code 406-381. You can link to verify your phone: v.whatsapp.com\/4212121"}
29-09-2018 09:11:04 AM {"user_name":"wincloud2","password":"supertel123","phone_no":"01740963472","msg":"WhatsApp code 406-381. You can link to verify your phone: v.whatsapp.com\/4212121"}
29-09-2018 09:11:07 AM {"user_name":"wincloud2","password":"supertel123","phone_no":"01740963472","msg":"WhatsApp code 406-381. You can link to verify your phone: v.whatsapp.com\/4212121"}
29-09-2018 09:11:09 AM {"user_name":"wincloud2","password":"supertel123","phone_no":"01740963472","msg":"WhatsApp code 406-381. You can link to verify your phone: v.whatsapp.com\/4212121"}
29-09-2018 09:11:10 AM {"user_name":"wincloud2","password":"supertel123","phone_no":"01740963472","msg":"WhatsApp code 406-381. You can link to verify your phone: v.whatsapp.com\/4212121"}
29-09-2018 09:11:16 AM {"user_name":"wincloud2","password":"supertel123","phone_no":"01740963472","msg":"WhatsApp code 406-381. You can link to verify your phone: v.whatsapp.com\/4212121"}
29-09-2018 09:11:19 AM {"user_name":"wincloud2","password":"supertel123","phone_no":"01740963472","msg":"WhatsApp code 406-381. You can link to verify your phone: v.whatsapp.com\/4212121"}
29-09-2018 09:11:21 AM {"user_name":"wincloud2","password":"supertel123","phone_no":"01740963472","msg":"WhatsApp code 406-381. You can link to verify your phone: v.whatsapp.com\/4212121"}
29-09-2018 09:11:26 AM {"user_name":"wincloud2","password":"supertel123","phone_no":"01740963472","msg":"WhatsApp code 406-381. You can link to verify your phone: v.whatsapp.com\/4212121"}
29-09-2018 09:11:29 AM {"user_name":"wincloud2","password":"supertel123","phone_no":"01740963472","msg":"WhatsApp code 406-381. You can link to verify your phone: v.whatsapp.com\/4212121"}
29-09-2018 09:11:31 AM {"user_name":"wincloud2","password":"supertel123","phone_no":"01740963472","msg":"WhatsApp code 406-381. You can link to verify your phone: v.whatsapp.com\/4212121"}
29-09-2018 09:11:33 AM {"user_name":"wincloud2","password":"supertel123","phone_no":"01740963472","msg":"WhatsApp code 406-381. You can link to verify your phone: v.whatsapp.com\/4212121"}
29-09-2018 09:11:46 AM {"user_name":"wincloud2","password":"supertel123","phone_no":"01740963472","msg":"WhatsApp code 406-381. You can link to verify your phone: v.whatsapp.com\/4212121"}
29-09-2018 09:11:48 AM {"user_name":"wincloud2","password":"supertel123","phone_no":"01740963472","msg":"WhatsApp code 406-381. You can link to verify your phone: v.whatsapp.com\/4212121"}
29-09-2018 09:12:07 AM {"user_name":"wincloud2","password":"supertel123","phone_no":"01740963472","msg":"WhatsApp code 406-381. You can link to verify your phone: v.whatsapp.com\/4212121"}
29-09-2018 09:12:09 AM {"user_name":"wincloud2","password":"supertel123","phone_no":"01740963472","msg":"WhatsApp code 406-381. You can link to verify your phone: v.whatsapp.com\/4212121"}
29-09-2018 09:12:10 AM {"user_name":"wincloud2","password":"supertel123","phone_no":"01740963472","msg":"WhatsApp code 406-381. You can link to verify your phone: v.whatsapp.com\/4212121"}
29-09-2018 09:12:12 AM {"user_name":"wincloud2","password":"supertel123","phone_no":"01740963472","msg":"WhatsApp code 406-381. You can link to verify your phone: v.whatsapp.com\/4212121"}
29-09-2018 09:12:13 AM {"user_name":"wincloud2","password":"supertel123","phone_no":"01740963472","msg":"WhatsApp code 406-381. You can link to verify your phone: v.whatsapp.com\/4212121"}
29-09-2018 09:12:14 AM {"user_name":"wincloud2","password":"supertel123","phone_no":"01740963472","msg":"WhatsApp code 406-381. You can link to verify your phone: v.whatsapp.com\/4212121"}
29-09-2018 09:12:16 AM {"user_name":"wincloud2","password":"supertel123","phone_no":"01740963472","msg":"WhatsApp code 406-381. You can link to verify your phone: v.whatsapp.com\/4212121"}
29-09-2018 09:12:17 AM {"user_name":"wincloud2","password":"supertel123","phone_no":"01740963472","msg":"WhatsApp code 406-381. You can link to verify your phone: v.whatsapp.com\/4212121"}
29-09-2018 09:12:20 AM {"user_name":"wincloud2","password":"supertel123","phone_no":"01740963472","msg":"WhatsApp code 406-381. You can link to verify your phone: v.whatsapp.com\/4212121"}
29-09-2018 09:12:21 AM {"user_name":"wincloud2","password":"supertel123","phone_no":"01740963472","msg":"WhatsApp code 406-381. You can link to verify your phone: v.whatsapp.com\/4212121"}
29-09-2018 09:12:23 AM {"user_name":"wincloud2","password":"supertel123","phone_no":"01740963472","msg":"WhatsApp code 406-381. You can link to verify your phone: v.whatsapp.com\/4212121"}
29-09-2018 09:12:24 AM {"user_name":"wincloud2","password":"supertel123","phone_no":"01740963472","msg":"WhatsApp code 406-381. You can link to verify your phone: v.whatsapp.com\/4212121"}
29-09-2018 09:12:26 AM {"user_name":"wincloud2","password":"supertel123","phone_no":"01740963472","msg":"WhatsApp code 406-381. You can link to verify your phone: v.whatsapp.com\/4212121"}
29-09-2018 09:12:27 AM {"user_name":"wincloud2","password":"supertel123","phone_no":"01740963472","msg":"WhatsApp code 406-381. You can link to verify your phone: v.whatsapp.com\/4212121"}
29-09-2018 09:12:29 AM {"user_name":"wincloud2","password":"supertel123","phone_no":"01740963472","msg":"WhatsApp code 406-381. You can link to verify your phone: v.whatsapp.com\/4212121"}
29-09-2018 09:12:30 AM {"user_name":"wincloud2","password":"supertel123","phone_no":"01740963472","msg":"WhatsApp code 406-381. You can link to verify your phone: v.whatsapp.com\/4212121"}
29-09-2018 09:12:32 AM {"user_name":"wincloud2","password":"supertel123","phone_no":"01740963472","msg":"WhatsApp code 406-381. You can link to verify your phone: v.whatsapp.com\/4212121"}
29-09-2018 09:12:34 AM {"user_name":"wincloud2","password":"supertel123","phone_no":"01740963472","msg":"WhatsApp code 406-381. You can link to verify your phone: v.whatsapp.com\/4212121"}
29-09-2018 09:12:35 AM {"user_name":"wincloud2","password":"supertel123","phone_no":"01740963472","msg":"WhatsApp code 406-381. You can link to verify your phone: v.whatsapp.com\/4212121"}
29-09-2018 09:12:37 AM {"user_name":"wincloud2","password":"supertel123","phone_no":"01740963472","msg":"WhatsApp code 406-381. You can link to verify your phone: v.whatsapp.com\/4212121"}
29-09-2018 09:12:37 AM {"user_name":"wincloud2","password":"supertel123","phone_no":"01740963472","msg":"WhatsApp code 406-381. You can link to verify your phone: v.whatsapp.com\/4212121"}
29-09-2018 09:12:38 AM {"user_name":"wincloud2","password":"supertel123","phone_no":"01740963472","msg":"WhatsApp code 406-381. You can link to verify your phone: v.whatsapp.com\/4212121"}
29-09-2018 09:12:40 AM {"user_name":"wincloud2","password":"supertel123","phone_no":"01740963472","msg":"WhatsApp code 406-381. You can link to verify your phone: v.whatsapp.com\/4212121"}
29-09-2018 09:12:43 AM {"user_name":"wincloud2","password":"supertel123","phone_no":"01740963472","msg":"WhatsApp code 406-381. You can link to verify your phone: v.whatsapp.com\/4212121"}
29-09-2018 09:12:44 AM {"user_name":"wincloud2","password":"supertel123","phone_no":"01740963472","msg":"WhatsApp code 406-381. You can link to verify your phone: v.whatsapp.com\/4212121"}
29-09-2018 09:12:45 AM {"user_name":"wincloud2","password":"supertel123","phone_no":"01740963472","msg":"WhatsApp code 406-381. You can link to verify your phone: v.whatsapp.com\/4212121"}
29-09-2018 09:12:46 AM {"user_name":"wincloud2","password":"supertel123","phone_no":"01740963472","msg":"WhatsApp code 406-381. You can link to verify your phone: v.whatsapp.com\/4212121"}
29-09-2018 09:12:48 AM {"user_name":"wincloud2","password":"supertel123","phone_no":"01740963472","msg":"WhatsApp code 406-381. You can link to verify your phone: v.whatsapp.com\/4212121"}
29-09-2018 09:12:49 AM {"user_name":"wincloud2","password":"supertel123","phone_no":"01740963472","msg":"WhatsApp code 406-381. You can link to verify your phone: v.whatsapp.com\/4212121"}
29-09-2018 09:12:50 AM {"user_name":"wincloud2","password":"supertel123","phone_no":"01740963472","msg":"WhatsApp code 406-381. You can link to verify your phone: v.whatsapp.com\/4212121"}
29-09-2018 09:12:51 AM {"user_name":"wincloud2","password":"supertel123","phone_no":"01740963472","msg":"WhatsApp code 406-381. You can link to verify your phone: v.whatsapp.com\/4212121"}
29-09-2018 09:12:52 AM {"user_name":"wincloud2","password":"supertel123","phone_no":"01740963472","msg":"WhatsApp code 406-381. You can link to verify your phone: v.whatsapp.com\/4212121"}
29-09-2018 09:12:53 AM {"user_name":"wincloud2","password":"supertel123","phone_no":"01740963472","msg":"WhatsApp code 406-381. You can link to verify your phone: v.whatsapp.com\/4212121"}
29-09-2018 09:12:55 AM {"user_name":"wincloud2","password":"supertel123","phone_no":"01740963472","msg":"WhatsApp code 406-381. You can link to verify your phone: v.whatsapp.com\/4212121"}
29-09-2018 09:12:57 AM {"user_name":"wincloud2","password":"supertel123","phone_no":"01740963472","msg":"WhatsApp code 406-381. You can link to verify your phone: v.whatsapp.com\/4212121"}
29-09-2018 09:12:58 AM {"user_name":"wincloud2","password":"supertel123","phone_no":"01740963472","msg":"WhatsApp code 406-381. You can link to verify your phone: v.whatsapp.com\/4212121"}
29-09-2018 09:13:00 AM {"user_name":"wincloud2","password":"supertel123","phone_no":"01740963472","msg":"WhatsApp code 406-381. You can link to verify your phone: v.whatsapp.com\/4212121"}
29-09-2018 09:13:00 AM {"user_name":"wincloud2","password":"supertel123","phone_no":"01740963472","msg":"WhatsApp code 406-381. You can link to verify your phone: v.whatsapp.com\/4212121"}
29-09-2018 09:13:01 AM {"user_name":"wincloud2","password":"supertel123","phone_no":"01740963472","msg":"WhatsApp code 406-381. You can link to verify your phone: v.whatsapp.com\/4212121"}
29-09-2018 09:13:02 AM {"user_name":"wincloud2","password":"supertel123","phone_no":"01740963472","msg":"WhatsApp code 406-381. You can link to verify your phone: v.whatsapp.com\/4212121"}
29-09-2018 09:13:03 AM {"user_name":"wincloud2","password":"supertel123","phone_no":"01740963472","msg":"WhatsApp code 406-381. You can link to verify your phone: v.whatsapp.com\/4212121"}
29-09-2018 09:13:05 AM {"user_name":"wincloud2","password":"supertel123","phone_no":"01740963472","msg":"WhatsApp code 406-381. You can link to verify your phone: v.whatsapp.com\/4212121"}
29-09-2018 09:13:06 AM {"user_name":"wincloud2","password":"supertel123","phone_no":"01740963472","msg":"WhatsApp code 406-381. You can link to verify your phone: v.whatsapp.com\/4212121"}
29-09-2018 09:13:06 AM {"user_name":"wincloud2","password":"supertel123","phone_no":"01740963472","msg":"WhatsApp code 406-381. You can link to verify your phone: v.whatsapp.com\/4212121"}
29-09-2018 09:13:07 AM {"user_name":"wincloud2","password":"supertel123","phone_no":"01740963472","msg":"WhatsApp code 406-381. You can link to verify your phone: v.whatsapp.com\/4212121"}
29-09-2018 09:16:43 AM {"user_name":"wincloud2","password":"supertel123","phone_no":"01740963472","msg":"WhatsApp code 406-381. You can link to verify your phone: v.whatsapp.com\/4212121"}
29-09-2018 09:16:47 AM {"user_name":"wincloud2","password":"supertel123","phone_no":"01740963472","msg":"WhatsApp code 406-381. You can link to verify your phone: v.whatsapp.com\/4212121"}
29-09-2018 09:16:50 AM {"user_name":"wincloud2","password":"supertel123","phone_no":"01740963472","msg":"WhatsApp code 406-381. You can link to verify your phone: v.whatsapp.com\/4212121"}
29-09-2018 09:16:53 AM {"user_name":"wincloud2","password":"supertel123","phone_no":"01740963472","msg":"WhatsApp code 406-381. You can link to verify your phone: v.whatsapp.com\/4212121"}
29-09-2018 09:17:46 AM {"user_name":"wincloud2","password":"supertel123","phone_no":"01740963472","msg":"WhatsApp code 406-381. You can link to verify your phone: v.whatsapp.com\/4212121"}
29-09-2018 09:17:54 AM {"user_name":"wincloud2","password":"supertel123","phone_no":"01740963472","msg":"WhatsApp code 406-381. You can link to verify your phone: v.whatsapp.com\/4212121"}
29-09-2018 09:18:12 AM {"user_name":"wincloud2","password":"supertel123","phone_no":"01740963472","msg":"WhatsApp code 406-381. You can link to verify your phone: v.whatsapp.com\/4212121"}
29-09-2018 09:18:32 AM {"user_name":"wincloud2","password":"supertel123","phone_no":"01740963472","msg":"WhatsApp code 406-381. You can link to verify your phone: v.whatsapp.com\/4212121"}
29-09-2018 09:18:37 AM {"user_name":"wincloud2","password":"supertel123","phone_no":"01740963472","msg":"WhatsApp code 406-381. You can link to verify your phone: v.whatsapp.com\/4212121"}
29-09-2018 09:18:38 AM {"user_name":"wincloud2","password":"supertel123","phone_no":"01740963472","msg":"WhatsApp code 406-381. You can link to verify your phone: v.whatsapp.com\/4212121"}
29-09-2018 09:18:39 AM {"user_name":"wincloud2","password":"supertel123","phone_no":"01740963472","msg":"WhatsApp code 406-381. You can link to verify your phone: v.whatsapp.com\/4212121"}
29-09-2018 09:18:40 AM {"user_name":"wincloud2","password":"supertel123","phone_no":"01740963472","msg":"WhatsApp code 406-381. You can link to verify your phone: v.whatsapp.com\/4212121"}
29-09-2018 09:19:21 AM {"user_name":"wincloud2","password":"supertel123","phone_no":"01740963472","msg":"WhatsApp code 406-381. You can link to verify your phone: v.whatsapp.com\/4212121"}
29-09-2018 09:52:55 AM {"user_name":"wincloud2","password":"supertel123","phone_no":"01740963472","msg":"WhatsApp code 406-381. You can link to verify your phone: v.whatsapp.com\/4212121"}
29-09-2018 09:53:41 AM {"user_name":"wincloud2","password":"supertel123","phone_no":"01740963472","msg":"WhatsApp code 406-381. You can link to verify your phone: v.myapp.com\/4212121"}
29-09-2018 09:59:52 AM {"user_name":"wincloud2","password":"supertel123","phone_no":"01740963472","msg":"WhatsApp code 406-381. You can link to verify your phone: v.myapp.com\/4212121"}
29-09-2018 09:59:59 AM {"user_name":"wincloud2","password":"supertel123","phone_no":"01740963472","msg":"WhatsApp code 406-381. You can link to verify your phone: v.myapp.com\/4212121"}
29-09-2018 10:00:17 AM {"user_name":"wincloud2","password":"supertel123","phone_no":"01740963472","msg":"WhatsApp code 406-381. You can link to verify your phone: v.myapp.com\/4212121"}
29-09-2018 10:00:47 AM {"user_name":"wincloud2","password":"supertel123","phone_no":"01740963472","msg":"WhatsApp code 406-381. You can link to verify your phone: v.whatsapp.com\/4212121"}
29-09-2018 10:00:56 AM {"user_name":"wincloud2","password":"supertel123","phone_no":"01740963472","msg":"WhatsApp code 406-381. You can link to verify your phone: v.whatsapp.com\/4212121"}
29-09-2018 10:01:21 AM {"user_name":"wincloud2","password":"supertel123","phone_no":"01740963472","msg":"WhatsApp code 406-381. You can link to verify your phone: v.whatsapp.com\/4212121"}
29-09-2018 10:01:57 AM {"user_name":"wincloud2","password":"supertel123","phone_no":"01740963472","msg":"WhatsApp code 406-381. You can link to verify your phone: v.whatsapp.com\/4212121"}
29-09-2018 10:02:28 AM {"user_name":"wincloud2","password":"supertel123","phone_no":"01740963472","msg":"WhatsApp code 406-381. You can link to verify your phone: v.whatsapp.com\/4212121"}
29-09-2018 10:03:14 AM {"user_name":"wincloud2","password":"supertel123","phone_no":"01740963472","msg":"WhatsApp code 406-381. You can link to verify your phone: v.whatsapp.com\/4212121"}
29-09-2018 10:05:06 AM {"user_name":"wincloud2","password":"supertel123","phone_no":"01740963472","msg":"WhatsApp code 406-381. You can link to verify your phone: v.whatsapp.com\/4212121"}
29-09-2018 10:05:53 AM {"user_name":"wincloud2","password":"supertel123","phone_no":"01740963472","msg":"WhatsApp code 406-381. You can link to verify your phone: v.whatsapp.com\/4212121"}
29-09-2018 10:06:06 AM {"user_name":"wincloud2","password":"supertel123","phone_no":"01740963472","msg":"WhatsApp code 406-381. You can link to verify your phone: v.whatsapp.com\/4212121"}
29-09-2018 10:06:53 AM {"user_name":"wincloud2","password":"supertel123","phone_no":"01740963472","msg":"WhatsApp code 406-381. You can link to verify your phone: v.whatsapp.com\/4212121"}
29-09-2018 10:06:55 AM {"user_name":"wincloud2","password":"supertel123","phone_no":"01740963472","msg":"WhatsApp code 406-381. You can link to verify your phone: v.whatsapp.com\/4212121"}
29-09-2018 10:06:58 AM {"user_name":"wincloud2","password":"supertel123","phone_no":"01740963472","msg":"WhatsApp code 406-381. You can link to verify your phone: v.whatsapp.com\/4212121"}
29-09-2018 10:06:59 AM {"user_name":"wincloud2","password":"supertel123","phone_no":"01740963472","msg":"WhatsApp code 406-381. You can link to verify your phone: v.whatsapp.com\/4212121"}
29-09-2018 10:07:00 AM {"user_name":"wincloud2","password":"supertel123","phone_no":"01740963472","msg":"WhatsApp code 406-381. You can link to verify your phone: v.whatsapp.com\/4212121"}
29-09-2018 10:07:07 AM {"user_name":"wincloud2","password":"supertel123","phone_no":"01740963472","msg":"WhatsApp code 406-381. You can link to verify your phone: v.whatsapp.com\/4212121"}
29-09-2018 10:07:12 AM {"user_name":"wincloud2","password":"supertel123","phone_no":"01740963472","msg":"WhatsApp code 406-381. You can link to verify your phone: v.whatsapp.com\/4212121"}
29-09-2018 10:07:13 AM {"user_name":"wincloud2","password":"supertel123","phone_no":"01740963472","msg":"WhatsApp code 406-381. You can link to verify your phone: v.whatsapp.com\/4212121"}
29-09-2018 10:08:57 AM {"user_name":"wincloud2","password":"supertel123","phone_no":"01740963472","msg":"WhatsApp code 406-381. You can link to verify your phone: v.whatsapp.com\/4212121"}
29-09-2018 10:09:01 AM {"user_name":"wincloud2","password":"supertel123","phone_no":"01740963472","msg":"WhatsApp code 406-381. You can link to verify your phone: v.whatsapp.com\/4212121"}
29-09-2018 10:09:04 AM {"user_name":"wincloud2","password":"supertel123","phone_no":"01740963472","msg":"WhatsApp code 406-381. You can link to verify your phone: v.whatsapp.com\/4212121"}
29-09-2018 10:09:07 AM {"user_name":"wincloud2","password":"supertel123","phone_no":"01740963472","msg":"WhatsApp code 406-381. You can link to verify your phone: v.whatsapp.com\/4212121"}
29-09-2018 10:09:08 AM {"user_name":"wincloud2","password":"supertel123","phone_no":"01740963472","msg":"WhatsApp code 406-381. You can link to verify your phone: v.whatsapp.com\/4212121"}
29-09-2018 10:09:09 AM {"user_name":"wincloud2","password":"supertel123","phone_no":"01740963472","msg":"WhatsApp code 406-381. You can link to verify your phone: v.whatsapp.com\/4212121"}
29-09-2018 10:26:51 AM {"user_name":"wincloud2","password":"supertel123","phone_no":"01740963472","msg":"WhatsApp code 406-381. You can link to verify your phone: v.whatsapp.com\/3222121"}
18-04-2019 07:25:31 AM {"user_name":"Tanvir","password":"123456","phone_no":"[TO]","msg":"[MESSAGE]"}
18-04-2019 07:25:44 AM {"user_name":"Tanvir","password":"123456","phone_no":"01740963472","msg":"[MESSAGE]"}
18-04-2019 07:25:51 AM {"user_name":"Tanvir","password":"123456","phone_no":"8801740963472","msg":"[MESSAGE]"}
18-04-2019 09:29:04 AM {"user_name":"Tanvir","password":"123456","phone_no":"8801740963472","msg":"[MESSAGE]"}
21-04-2019 06:28:46 AM {"user_name":"Tanvir","password":"123456","phone_no":"[TO]","msg":"[MESSAGE]"}
21-04-2019 06:28:57 AM {"user_name":"Tanvir","password":"123456","phone_no":"01740963472","msg":"[MESSAGE]"}
21-04-2019 06:29:04 AM {"user_name":"Tanvir","password":"123456","phone_no":"8801740963472","msg":"[MESSAGE]"}
21-04-2019 06:56:41 AM {"user_name":"Tanvir","password":"123456","phone_no":"8801740963472","msg":"[MESSAGE]"}
23-04-2019 06:34:06 AM {"api_key":"Qzw41zrxxbwLU0gFUNmmOOqfYor3kWIqg3DyGS05ei4gTppC","phone_no":"[TO]","msg":"[MESSAGE]"}
23-04-2019 06:34:16 AM {"api_key":"Qzw41zrxxbwLU0gFUNmmOOqfYor3kWIqg3DyGS05ei4gTppC","phone_no":"[TO]","msg":"[MESSAGE]"}
23-04-2019 06:34:18 AM {"api_key":"Qzw41zrxxbwLU0gFUNmmOOqfYor3kWIqg3DyGS05ei4gTppC","phone_no":"[TO]","msg":"[MESSAGE]"}
23-04-2019 06:35:20 AM {"api_key":"Qzw41zrxxbwLU0gFUNmmOOqfYor3kWIqg3DyGS05ei4gTppC","phone_no":"[TO]","msg":"[MESSAGE]"}
23-04-2019 06:36:14 AM {"api_key":"Qzw41zrxxbwLU0gFUNmmOOqfYor3kWIqg3DyGS05ei4gTppC","phone_no":"[TO]","msg":"[MESSAGE]"}
23-04-2019 06:36:27 AM {"api_key":"Qzw41zrxxbwLU0gFUNmmOOqfYor3kWIqg3DyGS05ei4gTppC","phone_no":"[TO]","msg":"[MESSAGE]"}
23-04-2019 06:36:46 AM {"api_key":"Qzw41zrxxbwLU0gFUNmmOOqfYor3kWIqg3DyGS05ei4gTppC","phone_no":"[TO]","msg":"[MESSAGE]"}
23-04-2019 06:36:50 AM {"api_key":"Qzw41zrxxbwLU0gFUNmmOOqfYor3kWIqg3DyGS05ei4gTppC","phone_no":"[TO]","msg":"[MESSAGE]"}
23-04-2019 06:37:00 AM {"api_key":"xXOnH97S52hqjPNmyvdkbIuDCYaAmvlItoDHJ3etLDU0ntf2","phone_no":"[TO]","msg":"[MESSAGE]"}
23-04-2019 06:37:09 AM {"api_key":"xXOnH97S52hqjPNmyvdkbIuDCYaAmvlItoDHJ3etLDU0ntf2","phone_no":"01740963472","msg":"[MESSAGE]"}
23-04-2019 06:37:35 AM {"api_key":"xXOnH97S52hqjPNmyvdkbIuDCYaAmvlItoDHJ3etLDU0ntf2","phone_no":"01740963472","msg":"[MESSAGE]"}
23-04-2019 06:37:36 AM {"api_key":"xXOnH97S52hqjPNmyvdkbIuDCYaAmvlItoDHJ3etLDU0ntf2","phone_no":"01740963472","msg":"[MESSAGE]"}
23-04-2019 06:37:44 AM {"api_key":"xXOnH97S52hqjPNmyvdkbIuDCYaAmvlItoDHJ3etLDU0ntf2","phone_no":"8801740963472","msg":"[MESSAGE]"}
23-04-2019 07:01:06 AM {"api_key":"xXOnH97S52hqjPNmyvdkbIuDCYaAmvlItoDHJ3etLDU0ntf2","phone_no":"8801740963472","msg":"[MESSAGE]"}
23-04-2019 07:26:49 AM {"api_key":"hWQMqakpshhbc6T8bSYUxYlVfDSOlB5E4q49QGaaRp52KvG7","phone_no":"[TO]","msg":"[MESSAGE]"}
28-04-2019 01:05:01 PM {"api_key":"undefined","phone_no":"undefined","msg":"undefined"}
28-04-2019 01:05:01 PM {"api_key":"undefined","phone_no":"undefined","msg":"undefined"}
28-04-2019 01:05:01 PM {"api_key":"undefined","phone_no":"undefined","msg":"undefined"}
28-04-2019 01:05:01 PM {"api_key":"undefined","phone_no":"undefined","msg":"undefined"}
28-04-2019 01:06:42 PM {"api_key":"undefined","phone_no":"undefined","msg":"undefined"}
28-04-2019 01:06:42 PM {"api_key":"undefined","phone_no":"undefined","msg":"undefined"}
28-04-2019 01:06:42 PM {"api_key":"undefined","phone_no":"undefined","msg":"undefined"}
28-04-2019 01:06:42 PM {"api_key":"undefined","phone_no":"undefined","msg":"undefined"}
28-04-2019 01:06:42 PM {"api_key":"undefined","phone_no":"undefined","msg":"undefined"}
28-04-2019 01:06:43 PM {"api_key":"undefined","phone_no":"undefined","msg":"undefined"}
28-04-2019 01:06:44 PM {"api_key":"undefined","phone_no":"undefined","msg":"undefined"}
28-04-2019 01:07:53 PM {"api_key":"5X2xF3mdPh1pUNCJak1JX4H5ZhAxECi9TeR3GlV7UIgkZZnB","phone_no":"0192222222","msg":"hello4"}
28-04-2019 01:07:54 PM {"api_key":"5X2xF3mdPh1pUNCJak1JX4H5ZhAxECi9TeR3GlV7UIgkZZnB","phone_no":"0192222222","msg":"hello4"}
28-04-2019 01:07:56 PM {"api_key":"5X2xF3mdPh1pUNCJak1JX4H5ZhAxECi9TeR3GlV7UIgkZZnB","phone_no":"0192222222","msg":"hello4"}
28-04-2019 01:07:57 PM {"api_key":"5X2xF3mdPh1pUNCJak1JX4H5ZhAxECi9TeR3GlV7UIgkZZnB","phone_no":"0192222222","msg":"hello4"}
28-04-2019 01:08:39 PM {"api_key":"5X2xF3mdPh1pUNCJak1JX4H5ZhAxECi9TeR3GlV7UIgkZZnB","phone_no":"0192222222","msg":"hello4"}
28-04-2019 01:09:34 PM {"api_key":"5X2xF3mdPh1pUNCJak1JX4H5ZhAxECi9TeR3GlV7UIgkZZnB","phone_no":"880172222222","msg":"hello9"}
28-04-2019 01:09:35 PM {"api_key":"5X2xF3mdPh1pUNCJak1JX4H5ZhAxECi9TeR3GlV7UIgkZZnB","phone_no":"880172222222","msg":"hello9"}
28-04-2019 01:09:48 PM {"api_key":"5X2xF3mdPh1pUNCJak1JX4H5ZhAxECi9TeR3GlV7UIgkZZnB","phone_no":"880172222222","msg":"hello9"}
28-04-2019 01:11:30 PM {"api_key":"5X2xF3mdPh1pUNCJak1JX4H5ZhAxECi9TeR3GlV7UIgkZZnB","phone_no":"880172222222","msg":"hello9"}
28-04-2019 01:13:21 PM {"api_key":"5X2xF3mdPh1pUNCJak1JX4H5ZhAxECi9TeR3GlV7UIgkZZnB","phone_no":"880172222222","msg":"15-20"}
28-04-2019 01:13:22 PM {"api_key":"5X2xF3mdPh1pUNCJak1JX4H5ZhAxECi9TeR3GlV7UIgkZZnB","phone_no":"880172222222","msg":"15-20"}
28-04-2019 01:13:22 PM {"api_key":"5X2xF3mdPh1pUNCJak1JX4H5ZhAxECi9TeR3GlV7UIgkZZnB","phone_no":"880172222222","msg":"15-20"}
28-04-2019 01:13:22 PM {"api_key":"5X2xF3mdPh1pUNCJak1JX4H5ZhAxECi9TeR3GlV7UIgkZZnB","phone_no":"880172222222","msg":"15-20"}
28-04-2019 01:13:22 PM {"api_key":"5X2xF3mdPh1pUNCJak1JX4H5ZhAxECi9TeR3GlV7UIgkZZnB","phone_no":"880172222222","msg":"15-20"}
28-04-2019 01:13:22 PM {"api_key":"5X2xF3mdPh1pUNCJak1JX4H5ZhAxECi9TeR3GlV7UIgkZZnB","phone_no":"880172222222","msg":"15-20"}
30-04-2019 09:53:49 AM {"api_key":"5X2xF3mdPh1pUNCJak1JX4H5ZhAxECi9TeR3GlV7UIgkZZnB","phone_no":"01740963472","msg":"Test Message"}
30-04-2019 09:53:49 AM {"api_key":"5X2xF3mdPh1pUNCJak1JX4H5ZhAxECi9TeR3GlV7UIgkZZnB","phone_no":"01740963472","msg":"Test Message"}
30-04-2019 09:59:11 AM {"api_key":"Qzw41zrxxbwLU0gFUNmmOOqfYor3kWIqg3DyGS05ei4gTppC","phone_no":"[TO]","msg":"[MESSAGE]"}
30-04-2019 09:59:51 AM {"api_key":"5X2xF3mdPh1pUNCJak1JX4H5ZhAxECi9TeR3GlV7UIgkZZnB","phone_no":"01740963472","msg":"Test Message"}
30-04-2019 09:59:51 AM {"api_key":"5X2xF3mdPh1pUNCJak1JX4H5ZhAxECi9TeR3GlV7UIgkZZnB","phone_no":"01740963472","msg":"Test Message"}
30-04-2019 10:02:13 AM {"api_key":"5X2xF3mdPh1pUNCJak1JX4H5ZhAxECi9TeR3GlV7UIgkZZnB","phone_no":"01740963472","msg":"Test Message"}
30-04-2019 10:04:09 AM {"api_key":"5X2xF3mdPh1pUNCJak1JX4H5ZhAxECi9TeR3GlV7UIgkZZnB","phone_no":"01740963472","msg":"Test Message"}
30-04-2019 10:04:09 AM {"api_key":"5X2xF3mdPh1pUNCJak1JX4H5ZhAxECi9TeR3GlV7UIgkZZnB","phone_no":"01740963472","msg":"Test Message"}
30-04-2019 10:24:59 AM {"api_key":"5X2xF3mdPh1pUNCJak1JX4H5ZhAxECi9TeR3GlV7UIgkZZnB","phone_no":"8801921345016","msg":"Hello World"}
30-04-2019 10:26:54 AM {"api_key":"5X2xF3mdPh1pUNCJak1JX4H5ZhAxECi9TeR3GlV7UIgkZZnB","phone_no":"01740963472","msg":"Test Message"}
30-04-2019 10:26:54 AM {"api_key":"5X2xF3mdPh1pUNCJak1JX4H5ZhAxECi9TeR3GlV7UIgkZZnB","phone_no":"01740963472","msg":"New Test Message"}
30-04-2019 10:32:23 AM {"api_key":"5X2xF3mdPh1pUNCJak1JX4H5ZhAxECi9TeR3GlV7UIgkZZnB","phone_no":"01740963472","msg":"New Test Message"}
30-04-2019 10:32:23 AM {"api_key":"5X2xF3mdPh1pUNCJak1JX4H5ZhAxECi9TeR3GlV7UIgkZZnB","phone_no":"017777884968","msg":"New Data Test Message"}
30-04-2019 10:34:19 AM {"api_key":"5X2xF3mdPh1pUNCJak1JX4H5ZhAxECi9TeR3GlV7UIgkZZnB","phone_no":"017777884968","msg":"Data Test Message"}
30-04-2019 10:38:53 AM {"api_key":"5X2xF3mdPh1pUNCJak1JX4H5ZhAxECi9TeR3GlV7UIgkZZnB","phone_no":"8801921345016","msg":"Bangla"}
30-04-2019 10:38:53 AM {"api_key":"5X2xF3mdPh1pUNCJak1JX4H5ZhAxECi9TeR3GlV7UIgkZZnB","phone_no":"01921345016","msg":"english"}
30-04-2019 10:40:52 AM {"api_key":"5X2xF3mdPh1pUNCJak1JX4H5ZhAxECi9TeR3GlV7UIgkZZnB","phone_no":"01921345016","msg":"Math"}
30-04-2019 10:42:48 AM {"api_key":"5X2xF3mdPh1pUNCJak1JX4H5ZhAxECi9TeR3GlV7UIgkZZnB","phone_no":"017777884968","msg":"Data Test Message"}
30-04-2019 10:44:44 AM {"api_key":"5X2xF3mdPh1pUNCJak1JX4H5ZhAxECi9TeR3GlV7UIgkZZnB","phone_no":"017777884968","msg":"Data Test Message....................."}
30-04-2019 10:45:10 AM {"api_key":"5X2xF3mdPh1pUNCJak1JX4H5ZhAxECi9TeR3GlV7UIgkZZnB","phone_no":"01921345016","msg":"Physics"}
30-04-2019 10:45:29 AM {"api_key":"5X2xF3mdPh1pUNCJak1JX4H5ZhAxECi9TeR3GlV7UIgkZZnB","phone_no":"017777884968","msg":"Data Test Message"}
30-04-2019 10:45:34 AM {"api_key":"5X2xF3mdPh1pUNCJak1JX4H5ZhAxECi9TeR3GlV7UIgkZZnB","phone_no":"017777884968","msg":"Data Test Message"}
30-04-2019 10:45:48 AM {"api_key":"5X2xF3mdPh1pUNCJak1JX4H5ZhAxECi9TeR3GlV7UIgkZZnB","phone_no":"017777884968","msg":"Data Test Message....................."}
30-04-2019 10:45:48 AM {"api_key":"5X2xF3mdPh1pUNCJak1JX4H5ZhAxECi9TeR3GlV7UIgkZZnB","phone_no":"01921345016","msg":"Physics"}
30-04-2019 10:45:49 AM {"api_key":"5X2xF3mdPh1pUNCJak1JX4H5ZhAxECi9TeR3GlV7UIgkZZnB","phone_no":"017777884968","msg":"Data Test Message"}
30-04-2019 10:45:49 AM {"api_key":"5X2xF3mdPh1pUNCJak1JX4H5ZhAxECi9TeR3GlV7UIgkZZnB","phone_no":"017777884968","msg":"Data Test Message"}
30-04-2019 10:46:14 AM {"api_key":"5X2xF3mdPh1pUNCJak1JX4H5ZhAxECi9TeR3GlV7UIgkZZnB","phone_no":"017777884968","msg":"Data Test Message....................."}
02-05-2019 06:17:28 AM {"api_key":"Qzw41zrxxbwLU0gFUNmmOOqfYor3kWIqg3DyGS05ei4gTppC","phone_no":"[TO]","msg":"[MESSAGE]"}
02-05-2019 10:53:55 AM {"api_key":"5X2xF3mdPh1pUNCJak1JX4H5ZhAxECi9TeR3GlV7UIgkZZnB","phone_no":"8801921345016","msg":"!@"}
02-05-2019 10:54:45 AM {"api_key":"5X2xF3mdPh1pUNCJak1JX4H5ZhAxECi9TeR3GlV7UIgkZZnB","phone_no":"8801921345016","msg":"!!@"}
02-05-2019 10:55:15 AM {"api_key":"5X2xF3mdPh1pUNCJak1JX4H5ZhAxECi9TeR3GlV7UIgkZZnB","phone_no":"8801921345016","msg":"!!@"}
02-05-2019 10:56:15 AM {"api_key":"5X2xF3mdPh1pUNCJak1JX4H5ZhAxECi9TeR3GlV7UIgkZZnB","phone_no":"8801921345016","msg":"!!@"}
02-05-2019 10:56:33 AM {"api_key":"5X2xF3mdPh1pUNCJak1JX4H5ZhAxECi9TeR3GlV7UIgkZZnB","phone_no":"8801921345016","msg":"!!@"}
02-05-2019 10:57:18 AM {"api_key":"5X2xF3mdPh1pUNCJak1JX4H5ZhAxECi9TeR3GlV7UIgkZZnB","phone_no":"8801921345016","msg":"!!@"}
02-05-2019 10:57:27 AM {"api_key":"5X2xF3mdPh1pUNCJak1JX4H5ZhAxECi9TeR3GlV7UIgkZZnB","phone_no":"8801921345016","msg":"!!@"}
02-05-2019 10:57:41 AM {"api_key":"5X2xF3mdPh1pUNCJak1JX4H5ZhAxECi9TeR3GlV7UIgkZZnB","phone_no":"8801921345016","msg":"!!@"}
02-05-2019 10:57:54 AM {"api_key":"5X2xF3mdPh1pUNCJak1JX4H5ZhAxECi9TeR3GlV7UIgkZZnB","phone_no":"8801921345016","msg":"!!@$%^","*()___":null}
02-05-2019 11:46:08 AM {"api_key":"5X2xF3mdPh1pUNCJak1JX4H5ZhAxECi9TeR3GlV7UIgkZZnB","phone_no":"8801921345016","msg":"02!!@#$%^&*()_++20"}
02-05-2019 11:46:31 AM {"api_key":"5X2xF3mdPh1pUNCJak1JX4H5ZhAxECi9TeR3GlV7UIgkZZnB","phone_no":"8801921345016","msg":"!!@#$%^&*()_++"}
12-05-2019 10:32:33 AM {"api_key":"5X2xF3mdPh1pUNCJak1JX4H5ZhAxECi9TeR3GlV7UIgkZZnB","phone_no":"[TO]","msg":"[MESSAGE]"}
12-05-2019 10:33:32 AM {"api_key":"5X2xF3mdPh1pUNCJak1JX4H5ZhAxECi9TeR3GlV7UIgkZZnB","phone_no":"[TO]","msg":"[MESSAGE]"}
12-05-2019 10:33:54 AM {"api_key":"O82MrAt8Epp66zAxOK4VlxjcGgAQpN0PW6ZQKkH7IkTQGfrv","phone_no":"[TO]","msg":"[MESSAGE]"}
12-05-2019 10:34:16 AM {"api_key":"O82MrAt8Epp66zAxOK4VlxjcGgAQpN0PW6ZQKkH7IkTQGfrv","phone_no":"[TO]","msg":"[MESSAGE]"}
12-05-2019 10:34:23 AM {"api_key":"O82MrAt8Epp66zAxOK4VlxjcGgAQpN0PW6ZQKkH7IkTQGfrv","phone_no":"[TO]","msg":"[MESSAGE]"}
12-05-2019 10:34:36 AM {"api_key":"O82MrAt8Epp66zAxOK4VlxjcGgAQpN0PW6ZQKkH7IkTQGfrv","phone_no":"[TO]","msg":"[MESSAGE]"}
12-05-2019 10:34:51 AM {"api_key":"O82MrAt8Epp66zAxOK4VlxjcGgAQpN0PW6ZQKkH7IkTQGfrv","phone_no":"[TO]","msg":"[MESSAGE]"}
12-05-2019 10:35:03 AM {"api_key":"O82MrAt8Epp66zAxOK4VlxjcGgAQpN0PW6ZQKkH7IkTQGfrv","phone_no":"[TO]","msg":"[MESSAGE]"}
12-05-2019 10:35:28 AM {"api_key":"O82MrAt8Epp66zAxOK4VlxjcGgAQpN0PW6ZQKkH7IkTQGfrv","phone_no":"[TO]","msg":"[MESSAGE]"}
12-05-2019 10:36:41 AM {"api_key":"O82MrAt8Epp66zAxOK4VlxjcGgAQpN0PW6ZQKkH7IkTQGfrv","phone_no":"01740963472","msg":"[MESSAGE]"}
12-05-2019 10:36:47 AM {"api_key":"O82MrAt8Epp66zAxOK4VlxjcGgAQpN0PW6ZQKkH7IkTQGfrv","phone_no":"01740963472","msg":"[MESSAGE]"}
12-05-2019 10:37:10 AM {"api_key":"O82MrAt8Epp66zAxOK4VlxjcGgAQpN0PW6ZQKkH7IkTQGfrv","phone_no":"01740963472","msg":"[MESSAGE]"}
12-05-2019 10:37:13 AM {"api_key":"O82MrAt8Epp66zAxOK4VlxjcGgAQpN0PW6ZQKkH7IkTQGfrv","phone_no":"01740963472","msg":"[MESSAGE]"}
12-05-2019 10:37:15 AM {"api_key":"O82MrAt8Epp66zAxOK4VlxjcGgAQpN0PW6ZQKkH7IkTQGfrv","phone_no":"01740963472","msg":"[MESSAGE]"}
12-05-2019 10:38:00 AM {"api_key":"O82MrAt8Epp66zAxOK4VlxjcGgAQpN0PW6ZQKkH7IkTQGfrv","phone_no":"01740963472","msg":"[MESSAGE]"}
25-05-2019 05:11:13 AM {"api_key":"O82MrAt8Epp66zAxOK4VlxjcGgAQpN0PW6ZQKkH7IkTQGfrv","phone_no":"01740963472","msg":"This is message"}
25-05-2019 05:12:03 AM {"api_key":"O82MrAt8Epp66zAxOK4VlxjcGgAQpN0PW6ZQKkH7IkTQGfrv","phone_no":"01740963472","msg":"This is message"}
25-05-2019 05:12:57 AM {"api_key":"O82MrAt8Epp66zAxOK4VlxjcGgAQpN0PW6ZQKkH7IkTQGfrv","phone_no":"01740963472","msg":"This is message"}
25-05-2019 05:13:31 AM {"api_key":"O82MrAt8Epp66zAxOK4VlxjcGgAQpN0PW6ZQKkH7IkTQGfrv","phone_no":"01740963472","msg":"This is message"}
25-05-2019 05:13:33 AM {"api_key":"O82MrAt8Epp66zAxOK4VlxjcGgAQpN0PW6ZQKkH7IkTQGfrv","phone_no":"01740963472","msg":"This is message"}
25-05-2019 05:13:48 AM {"api_key":"O82MrAt8Epp66zAxOK4VlxjcGgAQpN0PW6ZQKkH7IkTQGfrv","phone_no":"01740963472","msg":"This is message"}
25-05-2019 05:18:25 AM {"api_key":"O82MrAt8Epp66zAxOK4VlxjcGgAQpN0PW6ZQKkH7IkTQGfrv","phone_no":"01740963472","msg":"This is message"}
25-05-2019 05:19:01 AM {"api_key":"O82MrAt8Epp66zAxOK4VlxjcGgAQpN0PW6ZQKkH7IkTQGfrv","phone_no":"01640963472","msg":"This is message"}
23-06-2019 12:03:00 PM {"api_key":"5X2xF3mdPh1pUNCJak1JX4H5ZhAxECi9TeR3GlV7UIgkZZnB","phone_no":"01618335999","msg":"This is text message for test"}
23-06-2019 12:03:14 PM {"api_key":"5X2xF3mdPh1pUNCJak1JX4H5ZhAxECi9TeR3GlV7UIgkZZnB","phone_no":"01618335999","msg":"This is text message for test"}
23-06-2019 12:03:34 PM {"api_key":"5X2xF3mdPh1pUNCJak1JX4H5ZhAxECi9TeR3GlV7UIgkZZnB","phone_no":"01618335999","msg":"This is text message for test"}
23-06-2019 12:03:47 PM {"api_key":"5X2xF3mdPh1pUNCJak1JX4H5ZhAxECi9TeR3GlV7UIgkZZnB","phone_no":"01618335999","msg":"This is text message for test"}
23-06-2019 12:04:34 PM {"api_key":"5X2xF3mdPh1pUNCJak1JX4H5ZhAxECi9TeR3GlV7UIgkZZnB","phone_no":"01618335999","msg":"This is text message for test"}
25-06-2019 03:52:04 AM {"api_key":"5X2xF3mdPh1pUNCJak1JX4H5ZhAxECi9TeR3GlV7UIgkZZnB","phone_no":"01618335999","msg":"This is text message for test"}
25-06-2019 07:08:41 AM {"api_key":"O82MrAt8Epp66zAxOK4VlxjcGgAQpN0PW6ZQKkH7IkTQGfrv","phone_no":"[TO]","msg":"[MESSAGE]"}
25-06-2019 07:08:55 AM {"api_key":"O82MrAt8Epp66zAxOK4VlxjcGgAQpN0PW6ZQKkH7IkTQGfrv","phone_no":"000000000000000000","msg":"[MESSAGE]"}
25-06-2019 07:09:25 AM {"api_key":"NXqXviphhzwNR94F3YuYPWN5GwEoUBb5JO7C8UVNFRGoY8iW","phone_no":"[TO]","msg":"[MESSAGE]"}
25-06-2019 07:09:29 AM {"api_key":"O82MrAt8Epp66zAxOK4VlxjcGgAQpN0PW6ZQKkH7IkTQGfrv","phone_no":"000000000000000000","msg":"[MESSAGE]"}
25-06-2019 07:10:49 AM {"api_key":"O82MrAt8Epp66zAxOK4VlxjcGgAQpN0PW6ZQKkH7IkTQGfrv","phone_no":"000000000000000000","msg":"[MESSAGE]"}
25-06-2019 07:29:17 AM {"api_key":"NXqXviphhzwNR94F3YuYPWN5GwEoUBb5JO7C8UVNFRGoY8iW","phone_no":"[TO]","msg":"[MESSAGE]"}
25-06-2019 07:29:57 AM {"api_key":"O82MrAt8Epp66zAxOK4VlxjcGgAQpN0PW6ZQKkH7IkTQGfrv","phone_no":"000000000000000000","msg":"[MESSAGE]"}
19-10-2019 07:20:46 AM {"api_key":"zpCk4KT5Xfi9Snd7HsHLHHjCRoZEb436om8kZZvwkQrH1482","phone_no":"01740963472","msg":"This is message for testing oct 19"}
19-10-2019 07:21:30 AM {"api_key":"zpCk4KT5Xfi9Snd7HsHLHHjCRoZEb436om8kZZvwkQrH1482","phone_no":"01740963472","msg":"This is message for testing oct 19"}
19-10-2019 07:21:48 AM {"api_key":"zpCk4KT5Xfi9Snd7HsHLHHjCRoZEb436om8kZZvwkQrH1482","phone_no":"01740963472","msg":"This is message for testing oct 19"}
19-10-2019 07:30:12 AM {"api_key":"zpCk4KT5Xfi9Snd7HsHLHHjCRoZEb436om8kZZvwkQrH1482","phone_no":"01740963472","msg":"This is message for testing oct 19"}
19-10-2019 07:30:27 AM {"api_key":"zpCk4KT5Xfi9Snd7HsHLHHjCRoZEb436om8kZZvwkQrH1482","phone_no":"01740963472","msg":"This is message for testing oct 19"}
19-10-2019 07:31:37 AM {"api_key":"zpCk4KT5Xfi9Snd7HsHLHHjCRoZEb436om8kZZvwkQrH1482","phone_no":"01740963472","msg":"This is message for testing oct 19 id 2"}
19-10-2019 08:34:09 AM {"api_key":"zpCk4KT5Xfi9Snd7HsHLHHjCRoZEb436om8kZZvwkQrH1482","phone_no":"01940963472","msg":"This is another message"}
11-12-2019 04:24:14 PM {"api_key":"pOkWP54tG1TCO8js8kkvThV6gFJXkdNivj4YI3HYhgbV7AUQ","phone_no":"01730987654","msg":"New Message"}
11-12-2019 04:27:02 PM {"api_key":"pOkWP54tG1TCO8js8kkvThV6gFJXkdNivj4YI3HYhgbV7AUQ","phone_no":"01740987654","msg":"Hello, New Message"}
05-02-2020 11:39:36 AM {"api_key":"pOkWP54tG1TCO8js8kkvThV6gFJXkdNivj4YI3HYhgbV7AUQ","phone_no":"01740987654","msg":"Hello, New Message"}
05-02-2020 11:44:46 AM {"api_key":"pOkWP54tG1TCO8js8kkvThV6gFJXkdNivj4YI3HYhgbV7AUQ","phone_no":"01740987654","msg":"Hello, New Message"}
05-02-2020 12:13:59 PM {"api_key":"pOkWP54tG1TCO8js8kkvThV6gFJXkdNivj4YI3HYhgbV7AUQ","phone_no":"01740987654","msg":"Hello, New Message"}
